<?xml version="1.0" encoding="utf-8"?>
<!-- Generator: Adobe Illustrator 15.1.0, SVG Export Plug-In  -->
<!DOCTYPE svg PUBLIC "-//W3C//DTD SVG 1.1//EN" "http://www.w3.org/Graphics/SVG/1.1/DTD/svg11.dtd" [
	<!ENTITY ns_flows "http://ns.adobe.com/Flows/1.0/">
]>
<svg version="1.1"
	 xmlns="http://www.w3.org/2000/svg" xmlns:xlink="http://www.w3.org/1999/xlink" xmlns:a="http://ns.adobe.com/AdobeSVGViewerExtensions/3.0/"
	 x="0px" y="0px" width="80px" height="80px" viewBox="22 52 80 80" overflow="visible" enable-background="new 22 52 80 80"
	 xml:space="preserve">
<defs>
</defs>
<g>
	<path fill="#FCB811" d="M102,126c0,3.3-2.7,6-6,6H28c-3.3,0-6-2.7-6-6V58c0-3.3,2.7-6,6-6h68c3.3,0,6,2.7,6,6V126z"/>
</g>
<polygon fill="#FFFFFF" points="35,119 58.333,94.333 72.333,107.667 91,67.667 71,90.333 53.667,77 "/>
<g>
	<defs>
		<rect id="SVGID_9_" x="22" y="52" width="80" height="80"/>
	</defs>
	<clipPath id="SVGID_10_">
		<use xlink:href="#SVGID_9_"  overflow="visible"/>
	</clipPath>
	<radialGradient id="SVGID_11_" cx="54.5" cy="53.5" r="54.0023" gradientUnits="userSpaceOnUse">
		<stop  offset="0" style="stop-color:#FFFFFF;stop-opacity:0.37"/>
		<stop  offset="1" style="stop-color:#FFFFFF;stop-opacity:0.7"/>
	</radialGradient>
	<ellipse clip-path="url(#SVGID_10_)" fill="url(#SVGID_11_)" fill-opacity="0.5" cx="54.5" cy="53.5" rx="54.5" ry="53.5"/>
</g>
</svg>
