<?xml version="1.0" encoding="utf-8"?>
<!-- Generator: Adobe Illustrator 15.1.0, SVG Export Plug-In  -->
<!DOCTYPE svg PUBLIC "-//W3C//DTD SVG 1.1//EN" "http://www.w3.org/Graphics/SVG/1.1/DTD/svg11.dtd" [
	<!ENTITY ns_flows "http://ns.adobe.com/Flows/1.0/">
]>
<svg version="1.1"
	 xmlns="http://www.w3.org/2000/svg" xmlns:xlink="http://www.w3.org/1999/xlink" xmlns:a="http://ns.adobe.com/AdobeSVGViewerExtensions/3.0/"
	 x="0px" y="0px" width="44px" height="30px" viewBox="0 0 44 30" overflow="visible" enable-background="new 0 0 44 30"
	 xml:space="preserve">
<defs>
</defs>
<linearGradient id="SVGID_1_" gradientUnits="userSpaceOnUse" x1="-467.4272" y1="256.5977" x2="-467.4843" y2="255.6023" gradientTransform="matrix(44 0 0 -30 20590 7698.5)">
	<stop  offset="0" style="stop-color:#666666"/>
	<stop  offset="1" style="stop-color:#343434"/>
</linearGradient>
<path fill="url(#SVGID_1_)" d="M0,3c0-2.059,1.012-3,3-3h38c1.99,0,3,0.941,3,3v24c0,2.059-1.01,3-3,3H3c-1.988,0-3-0.941-3-3V3z"/>
<path fill="#999999" d="M11,14.492c0-1.105,0.896-2,2-2h18c1.105,0,2,0.895,2,2l0,0c0,1.104-0.895,2-2,2H13
	C11.896,16.492,11,15.596,11,14.492L11,14.492z"/>
<path fill="#999999" d="M11,8.492c0-1.105,0.896-2,2-2h18c1.105,0,2,0.895,2,2l0,0c0,1.104-0.895,2-2,2H13
	C11.896,10.492,11,9.596,11,8.492L11,8.492z"/>
<path fill="#999999" d="M11,20.492c0-1.105,0.896-2,2-2h18c1.105,0,2,0.895,2,2l0,0c0,1.104-0.895,2-2,2H13
	C11.896,22.492,11,21.596,11,20.492L11,20.492z"/>
</svg>
