<?xml version="1.0" encoding="utf-8"?>
<!-- Generator: Adobe Illustrator 15.1.0, SVG Export Plug-In  -->
<!DOCTYPE svg PUBLIC "-//W3C//DTD SVG 1.1//EN" "http://www.w3.org/Graphics/SVG/1.1/DTD/svg11.dtd" [
	<!ENTITY ns_flows "http://ns.adobe.com/Flows/1.0/">
]>
<svg version="1.1"
	 xmlns="http://www.w3.org/2000/svg" xmlns:xlink="http://www.w3.org/1999/xlink" xmlns:a="http://ns.adobe.com/AdobeSVGViewerExtensions/3.0/"
	 x="0px" y="0px" width="400px" height="50px" viewBox="0 6 400 50" overflow="visible" enable-background="new 0 6 400 50"
	 xml:space="preserve">
<defs>
</defs>
<rect y="6" fill="#BDD457" width="400" height="50"/>
<rect x="184" y="41" fill="#E2E5E4" width="36" height="13"/>
<g>
	<path fill="#FFFFFF" d="M239,41c0,1.65-1.35,3-3,3h-68c-1.65,0-3-1.35-3-3V3c0-1.65,1.35-3,3-3h68c1.65,0,3,1.35,3,3V41z"/>
</g>
<g>
	<path fill="#FFFFFF" d="M228,62c0,1.65-1.35,3-3,3h-46c-1.65,0-3-1.35-3-3v-9c0-1.65,1.35-3,3-3h46c1.65,0,3,1.35,3,3V62z"/>
</g>
<g>
	<path fill="#BCD45A" d="M232,30c0,1.1-0.9,2-2,2h-56c-1.1,0-2-0.9-2-2V4c0-1.1,0.9-2,2-2h56c1.1,0,2,0.9,2,2V30z"/>
</g>
<g>
	<path fill="#FFFFFF" d="M20.837,26.291c-0.334,0.488-0.731,0.901-1.19,1.241s-0.972,0.604-1.539,0.791
		c-0.567,0.187-1.179,0.28-1.836,0.28c-0.805,0-1.556-0.159-2.252-0.477c-0.697-0.316-1.3-0.753-1.811-1.309
		c-0.51-0.555-0.913-1.207-1.207-1.955c-0.295-0.748-0.442-1.553-0.442-2.414s0.147-1.666,0.442-2.414
		c0.294-0.748,0.697-1.399,1.207-1.955c0.51-0.555,1.114-0.991,1.811-1.309s1.448-0.476,2.252-0.476
		c0.668,0,1.289,0.091,1.861,0.271c0.572,0.182,1.088,0.442,1.547,0.782s0.855,0.754,1.19,1.241
		c0.334,0.487,0.592,1.031,0.773,1.632h-2.431c-0.261-0.544-0.646-0.992-1.156-1.343c-0.51-0.352-1.105-0.527-1.785-0.527
		c-0.487,0-0.941,0.107-1.36,0.323c-0.419,0.215-0.785,0.51-1.097,0.884s-0.558,0.811-0.739,1.309
		c-0.182,0.499-0.272,1.026-0.272,1.581c0,0.567,0.09,1.1,0.272,1.599c0.181,0.498,0.428,0.935,0.739,1.309s0.677,0.669,1.097,0.884
		c0.419,0.216,0.873,0.323,1.36,0.323c0.68,0,1.275-0.182,1.785-0.544c0.51-0.362,0.895-0.816,1.156-1.36h2.414
		C21.435,25.261,21.172,25.805,20.837,26.291z"/>
	<path fill="#FFFFFF" d="M26.184,19.424c0.612,0,1.184,0.116,1.717,0.348c0.533,0.232,1,0.556,1.403,0.97
		c0.402,0.413,0.719,0.9,0.952,1.462c0.232,0.561,0.349,1.17,0.349,1.827s-0.116,1.264-0.349,1.819s-0.55,1.037-0.952,1.444
		c-0.403,0.408-0.87,0.729-1.403,0.961s-1.105,0.349-1.717,0.349c-0.612,0-1.185-0.116-1.717-0.349s-0.997-0.553-1.394-0.961
		c-0.396-0.407-0.711-0.889-0.943-1.444s-0.349-1.162-0.349-1.819s0.116-1.267,0.349-1.827c0.232-0.562,0.547-1.049,0.943-1.462
		c0.397-0.414,0.861-0.737,1.394-0.97C24.999,19.54,25.571,19.424,26.184,19.424z M26.192,26.547c0.296,0,0.575-0.06,0.836-0.179
		s0.492-0.289,0.691-0.51c0.199-0.222,0.356-0.485,0.469-0.791c0.114-0.306,0.171-0.646,0.171-1.02s-0.057-0.72-0.171-1.037
		c-0.113-0.317-0.27-0.59-0.469-0.816s-0.429-0.402-0.691-0.527c-0.262-0.124-0.541-0.187-0.836-0.187s-0.578,0.062-0.845,0.187
		c-0.267,0.125-0.498,0.301-0.691,0.527s-0.347,0.499-0.461,0.816c-0.113,0.317-0.17,0.663-0.17,1.037s0.057,0.714,0.17,1.02
		c0.114,0.306,0.268,0.569,0.461,0.791c0.193,0.221,0.424,0.391,0.691,0.51S25.896,26.547,26.192,26.547z"/>
	<path fill="#FFFFFF" d="M44.697,28.399h-2.244v-5.117c0-0.124-0.017-0.286-0.051-0.484s-0.108-0.391-0.222-0.578
		c-0.114-0.187-0.279-0.346-0.496-0.476c-0.216-0.131-0.507-0.195-0.871-0.195c-0.513,0-0.926,0.164-1.239,0.492
		c-0.313,0.329-0.47,0.743-0.47,1.241v5.117H36.86v-5.117c0-0.124-0.018-0.286-0.051-0.484c-0.035-0.198-0.105-0.391-0.214-0.578
		c-0.108-0.187-0.271-0.346-0.487-0.476c-0.217-0.131-0.513-0.195-0.889-0.195c-0.501,0-0.909,0.164-1.222,0.492
		c-0.313,0.329-0.47,0.743-0.47,1.241v5.117h-2.244v-8.755h2.142l0,0.85c0.272-0.328,0.599-0.589,0.979-0.781
		c0.38-0.193,0.809-0.289,1.285-0.289c0.545,0,1.042,0.107,1.49,0.322c0.448,0.216,0.826,0.521,1.132,0.918
		c0.317-0.385,0.701-0.688,1.149-0.909s0.956-0.331,1.524-0.331c0.59,0,1.115,0.093,1.575,0.28c0.459,0.187,0.848,0.45,1.166,0.79
		s0.559,0.746,0.724,1.216c0.165,0.471,0.247,0.994,0.247,1.572V28.399z"/>
	<path fill="#FFFFFF" d="M54.812,23.996c0,0.646-0.111,1.25-0.333,1.811c-0.222,0.562-0.52,1.049-0.895,1.462
		c-0.375,0.414-0.815,0.737-1.32,0.97c-0.506,0.231-1.048,0.348-1.628,0.348c-0.511,0-0.986-0.091-1.423-0.271
		c-0.438-0.182-0.821-0.437-1.15-0.765v4.742h-2.244V19.645h2.142l0,0.918c0.341-0.352,0.739-0.626,1.193-0.824
		c0.454-0.198,0.948-0.298,1.482-0.298c0.579,0,1.122,0.116,1.627,0.349s0.946,0.553,1.321,0.96
		c0.375,0.408,0.673,0.891,0.895,1.445C54.701,22.75,54.812,23.351,54.812,23.996z M52.568,23.996c0-0.351-0.06-0.677-0.179-0.978
		c-0.12-0.3-0.282-0.561-0.486-0.781c-0.205-0.222-0.444-0.395-0.717-0.519c-0.273-0.125-0.563-0.188-0.87-0.188
		c-0.308,0-0.598,0.065-0.871,0.195c-0.273,0.131-0.512,0.307-0.717,0.527c-0.205,0.221-0.367,0.481-0.486,0.782
		c-0.119,0.3-0.179,0.62-0.179,0.96s0.06,0.663,0.179,0.97c0.12,0.306,0.282,0.572,0.486,0.799c0.205,0.227,0.444,0.405,0.717,0.535
		c0.273,0.131,0.563,0.195,0.871,0.195c0.307,0,0.597-0.062,0.87-0.187s0.512-0.301,0.717-0.527c0.205-0.227,0.367-0.49,0.486-0.79
		C52.508,24.69,52.568,24.359,52.568,23.996z"/>
	<path fill="#FFFFFF" d="M63.073,28.399h-2.142v-0.799c-0.272,0.317-0.595,0.563-0.969,0.739s-0.793,0.264-1.258,0.264
		c-0.521,0-0.994-0.094-1.419-0.28c-0.425-0.188-0.788-0.448-1.088-0.782s-0.533-0.736-0.697-1.207
		c-0.165-0.471-0.247-0.994-0.247-1.572v-5.117h2.244v5.117c0,0.125,0.017,0.283,0.051,0.476c0.034,0.193,0.107,0.383,0.221,0.569
		c0.113,0.188,0.278,0.346,0.493,0.477c0.215,0.13,0.504,0.195,0.867,0.195c0.51,0,0.92-0.164,1.232-0.493
		c0.312-0.328,0.467-0.736,0.467-1.224v-5.117h2.244V28.399z"/>
	<path fill="#FFFFFF" d="M71.845,24.744c0,0.556-0.091,1.068-0.272,1.539c-0.182,0.47-0.439,0.878-0.773,1.224
		c-0.334,0.346-0.737,0.615-1.207,0.808c-0.471,0.192-1,0.289-1.59,0.289s-1.122-0.097-1.598-0.288
		c-0.476-0.192-0.881-0.461-1.216-0.807c-0.334-0.345-0.592-0.752-0.773-1.222c-0.181-0.469-0.272-0.98-0.272-1.535v-7.317h2.244
		v2.227h5.372v2.091h-5.372v3.111c0,0.204,0.031,0.402,0.093,0.595c0.062,0.193,0.159,0.366,0.289,0.519
		c0.13,0.153,0.298,0.275,0.501,0.366c0.204,0.091,0.448,0.136,0.731,0.136c0.272,0,0.51-0.045,0.714-0.136s0.371-0.213,0.501-0.366
		c0.13-0.152,0.227-0.325,0.289-0.519c0.062-0.192,0.093-0.391,0.093-0.595V24.03h2.244V24.744z"/>
	<path fill="#FFFFFF" d="M74.956,18.692h-2.244v-2.091h2.244V18.692z M74.956,28.399h-2.244v-8.755h2.244V28.399z"/>
	<path fill="#FFFFFF" d="M84.034,28.399H81.79v-5.117c0-0.124-0.017-0.286-0.051-0.484c-0.034-0.198-0.105-0.391-0.212-0.578
		c-0.108-0.187-0.27-0.346-0.484-0.476c-0.215-0.131-0.51-0.195-0.884-0.195c-0.51,0-0.921,0.164-1.232,0.492
		c-0.312,0.329-0.467,0.743-0.467,1.241v5.117h-2.244v-8.755h2.142v0.85c0.283-0.328,0.612-0.589,0.986-0.781
		c0.374-0.193,0.799-0.289,1.275-0.289c0.51,0,0.978,0.093,1.403,0.28c0.425,0.187,0.785,0.447,1.079,0.782
		c0.295,0.334,0.524,0.739,0.688,1.215c0.165,0.477,0.247,1.003,0.247,1.581V28.399z"/>
	<path fill="#FFFFFF" d="M93.656,27.954c0,0.727-0.105,1.381-0.314,1.965c-0.21,0.584-0.51,1.08-0.901,1.488
		s-0.867,0.724-1.428,0.944s-1.193,0.332-1.896,0.332c-0.521,0-1.02-0.074-1.496-0.221c-0.476-0.147-0.904-0.354-1.283-0.621
		c-0.38-0.267-0.7-0.586-0.96-0.96c-0.261-0.374-0.431-0.794-0.51-1.259h2.465c0.068,0.17,0.172,0.317,0.314,0.442
		c0.142,0.125,0.294,0.227,0.459,0.306c0.164,0.079,0.334,0.137,0.51,0.17c0.176,0.034,0.343,0.052,0.501,0.052
		c0.793,0,1.374-0.239,1.743-0.716c0.368-0.478,0.552-1.108,0.552-1.893v-0.426c-0.34,0.331-0.728,0.585-1.164,0.762
		c-0.437,0.178-0.91,0.266-1.42,0.266c-0.566,0-1.102-0.116-1.606-0.349s-0.946-0.554-1.326-0.962
		c-0.38-0.409-0.68-0.892-0.901-1.448c-0.221-0.556-0.332-1.158-0.332-1.806c0-0.646,0.111-1.251,0.332-1.813
		c0.221-0.562,0.521-1.048,0.901-1.456c0.379-0.408,0.821-0.729,1.326-0.962c0.504-0.233,1.04-0.35,1.606-0.35
		c0.544,0,1.04,0.098,1.488,0.291c0.447,0.194,0.847,0.475,1.198,0.84v-0.935h2.142V27.954z M91.412,24.039
		c0-0.351-0.06-0.678-0.179-0.983c-0.12-0.305-0.281-0.57-0.486-0.796c-0.205-0.226-0.443-0.403-0.717-0.533
		c-0.273-0.13-0.563-0.195-0.87-0.195s-0.597,0.065-0.87,0.195c-0.273,0.13-0.512,0.305-0.717,0.525
		c-0.205,0.22-0.367,0.485-0.486,0.796s-0.179,0.641-0.179,0.991c0,0.35,0.06,0.675,0.179,0.974c0.12,0.3,0.281,0.56,0.486,0.779
		c0.205,0.221,0.443,0.393,0.717,0.518c0.273,0.124,0.563,0.186,0.87,0.186s0.597-0.064,0.87-0.194
		c0.273-0.13,0.512-0.305,0.717-0.525c0.205-0.22,0.367-0.479,0.486-0.779C91.352,24.697,91.412,24.378,91.412,24.039z"/>
	<path fill="#FFFFFF" d="M15.457,34.296c0.782,0,1.456,0.113,2.023,0.34c0.566,0.227,1.034,0.524,1.402,0.893
		s0.643,0.784,0.825,1.249c0.181,0.465,0.272,0.93,0.272,1.395h-2.244c0-0.511-0.201-0.936-0.604-1.275s-0.96-0.51-1.674-0.51
		c-0.295,0-0.581,0.028-0.858,0.085c-0.278,0.057-0.524,0.142-0.74,0.255s-0.385,0.255-0.51,0.425
		c-0.125,0.17-0.187,0.368-0.187,0.595c0,0.408,0.207,0.712,0.621,0.91c0.414,0.198,1.073,0.388,1.98,0.569
		c0.703,0.136,1.334,0.292,1.896,0.468s1.04,0.399,1.437,0.671c0.396,0.272,0.702,0.612,0.918,1.021
		c0.215,0.407,0.323,0.912,0.323,1.513c0,0.566-0.113,1.079-0.34,1.538c-0.227,0.459-0.553,0.851-0.978,1.174
		c-0.425,0.322-0.938,0.569-1.539,0.739s-1.275,0.255-2.023,0.255c-0.578,0-1.156-0.082-1.734-0.247
		c-0.578-0.164-1.097-0.413-1.556-0.747c-0.459-0.335-0.831-0.76-1.113-1.275c-0.284-0.516-0.425-1.131-0.425-1.845h2.244
		c0,0.352,0.079,0.654,0.238,0.909c0.159,0.256,0.363,0.468,0.612,0.638c0.249,0.17,0.527,0.298,0.833,0.383
		c0.306,0.085,0.606,0.128,0.901,0.128c0.317,0,0.635-0.028,0.952-0.086c0.317-0.056,0.601-0.149,0.85-0.28
		c0.25-0.13,0.451-0.294,0.604-0.493c0.153-0.197,0.229-0.438,0.229-0.722c0-0.182-0.042-0.352-0.127-0.511
		c-0.085-0.158-0.235-0.303-0.45-0.434c-0.216-0.13-0.501-0.252-0.859-0.365c-0.357-0.113-0.807-0.221-1.351-0.323
		c-0.544-0.102-1.08-0.229-1.607-0.382c-0.527-0.153-0.994-0.363-1.402-0.629c-0.408-0.267-0.739-0.606-0.995-1.021
		c-0.255-0.413-0.382-0.938-0.382-1.572c0-0.51,0.107-0.975,0.323-1.395c0.215-0.419,0.521-0.778,0.918-1.079
		c0.396-0.3,0.873-0.535,1.428-0.705S14.766,34.296,15.457,34.296z"/>
	<path fill="#FFFFFF" d="M22.937,42.897c0.147,0.544,0.417,0.969,0.808,1.275c0.391,0.306,0.853,0.459,1.385,0.459
		c0.374,0,0.728-0.082,1.062-0.247c0.334-0.164,0.598-0.422,0.791-0.773h2.397c-0.261,0.896-0.756,1.618-1.487,2.168
		s-1.646,0.824-2.746,0.824c-0.612,0-1.19-0.119-1.734-0.357c-0.544-0.237-1.02-0.563-1.428-0.978
		c-0.408-0.413-0.731-0.897-0.969-1.453c-0.238-0.555-0.357-1.15-0.357-1.785s0.119-1.232,0.357-1.793
		c0.238-0.562,0.561-1.049,0.969-1.462c0.408-0.414,0.884-0.742,1.428-0.986s1.122-0.365,1.734-0.365
		c0.646,0,1.255,0.121,1.828,0.365c0.572,0.244,1.062,0.601,1.47,1.071c0.408,0.47,0.714,1.045,0.918,1.725
		c0.204,0.681,0.266,1.451,0.187,2.312H22.937z M27.323,41.062c-0.136-0.51-0.399-0.915-0.791-1.216
		c-0.391-0.3-0.858-0.45-1.402-0.45c-0.51,0-0.958,0.15-1.343,0.45c-0.386,0.301-0.658,0.706-0.816,1.216H27.323z"/>
	<path fill="#FFFFFF" d="M38.083,41.725H35.84v-0.442c0-0.124-0.017-0.286-0.051-0.484c-0.034-0.198-0.105-0.391-0.212-0.578
		c-0.108-0.187-0.27-0.346-0.484-0.476c-0.215-0.131-0.51-0.195-0.884-0.195c-0.51,0-0.921,0.164-1.232,0.492
		c-0.312,0.329-0.467,0.743-0.467,1.241v5.117h-2.244v-8.755h2.142v0.85c0.283-0.328,0.612-0.589,0.986-0.781
		c0.374-0.193,0.799-0.289,1.275-0.289c0.51,0,0.978,0.093,1.403,0.28c0.425,0.187,0.785,0.447,1.079,0.782
		c0.295,0.334,0.524,0.739,0.688,1.215c0.165,0.477,0.247,1.003,0.247,1.581V41.725z"/>
	<path fill="#FFFFFF" d="M43.303,46.399h-2.414l-3.315-8.755h2.346l2.176,6.528l2.193-6.528h2.312L43.303,46.399z"/>
	<path fill="#FFFFFF" d="M49.083,36.692h-2.244v-2.091h2.244V36.692z M49.083,46.399h-2.244v-8.755h2.244V46.399z"/>
	<path fill="#FFFFFF" d="M57.072,45.771c-0.748,0.556-1.655,0.833-2.72,0.833c-0.658,0-1.264-0.119-1.819-0.357
		c-0.555-0.237-1.031-0.563-1.428-0.978c-0.397-0.413-0.708-0.897-0.935-1.453c-0.227-0.555-0.34-1.15-0.34-1.785
		s0.113-1.232,0.34-1.793c0.227-0.562,0.538-1.049,0.935-1.462c0.396-0.414,0.873-0.742,1.428-0.986s1.162-0.365,1.819-0.365
		c1.065,0,1.969,0.277,2.711,0.833c0.742,0.555,1.244,1.331,1.504,2.328h-2.397c-0.159-0.294-0.399-0.552-0.723-0.773
		c-0.323-0.221-0.688-0.331-1.096-0.331c-0.306,0-0.595,0.068-0.867,0.204s-0.51,0.32-0.714,0.553
		c-0.204,0.232-0.366,0.504-0.485,0.815c-0.119,0.312-0.178,0.644-0.178,0.995c0,0.34,0.06,0.662,0.178,0.969
		c0.119,0.306,0.281,0.575,0.485,0.808c0.204,0.232,0.442,0.413,0.714,0.544c0.272,0.13,0.561,0.195,0.867,0.195
		c0.419,0,0.793-0.11,1.122-0.332c0.329-0.221,0.567-0.484,0.714-0.79h2.397C58.325,44.438,57.82,45.215,57.072,45.771z"/>
	<path fill="#FFFFFF" d="M60.965,42.897c0.147,0.544,0.417,0.969,0.808,1.275c0.391,0.306,0.853,0.459,1.385,0.459
		c0.374,0,0.728-0.082,1.062-0.247c0.334-0.164,0.598-0.422,0.791-0.773h2.397c-0.261,0.896-0.756,1.618-1.487,2.168
		s-1.646,0.824-2.746,0.824c-0.612,0-1.19-0.119-1.734-0.357c-0.544-0.237-1.02-0.563-1.428-0.978
		c-0.408-0.413-0.731-0.897-0.969-1.453c-0.238-0.555-0.357-1.15-0.357-1.785s0.119-1.232,0.357-1.793
		c0.238-0.562,0.561-1.049,0.969-1.462c0.408-0.414,0.884-0.742,1.428-0.986s1.122-0.365,1.734-0.365
		c0.646,0,1.255,0.121,1.828,0.365c0.572,0.244,1.062,0.601,1.47,1.071c0.408,0.47,0.714,1.045,0.918,1.725
		c0.204,0.681,0.266,1.451,0.187,2.312H60.965z M65.351,41.062c-0.136-0.51-0.399-0.915-0.791-1.216
		c-0.391-0.3-0.858-0.45-1.402-0.45c-0.51,0-0.958,0.15-1.343,0.45c-0.386,0.301-0.658,0.706-0.816,1.216H65.351z"/>
	<path fill="#FFFFFF" d="M75.687,43.646c0,0.431-0.096,0.827-0.287,1.189c-0.191,0.363-0.456,0.675-0.793,0.936
		s-0.741,0.465-1.209,0.612c-0.469,0.146-0.981,0.221-1.536,0.221s-1.071-0.071-1.547-0.213s-0.896-0.346-1.258-0.611
		c-0.363-0.267-0.661-0.587-0.893-0.961c-0.232-0.374-0.383-0.799-0.451-1.275h2.278c0.079,0.193,0.189,0.352,0.331,0.477
		s0.298,0.229,0.468,0.314s0.349,0.145,0.536,0.179s0.365,0.051,0.535,0.051c0.453,0,0.83-0.065,1.131-0.195
		c0.3-0.131,0.45-0.326,0.45-0.587c0-0.124-0.023-0.232-0.068-0.323c-0.045-0.09-0.136-0.17-0.272-0.237
		c-0.137-0.068-0.324-0.134-0.563-0.195c-0.239-0.062-0.551-0.122-0.938-0.179c-0.398-0.057-0.811-0.134-1.237-0.229
		c-0.426-0.097-0.821-0.241-1.185-0.434s-0.662-0.445-0.895-0.757c-0.233-0.312-0.35-0.711-0.35-1.198
		c0-0.34,0.076-0.68,0.229-1.021c0.153-0.34,0.382-0.64,0.688-0.9s0.694-0.474,1.165-0.638c0.47-0.164,1.022-0.246,1.657-0.246
		c0.499,0,0.963,0.064,1.394,0.195c0.431,0.13,0.813,0.314,1.147,0.553c0.334,0.237,0.609,0.526,0.825,0.866
		s0.357,0.714,0.425,1.122h-2.329c-0.068-0.204-0.224-0.376-0.468-0.519c-0.244-0.142-0.575-0.212-0.995-0.212
		c-0.521,0-0.895,0.076-1.122,0.229c-0.227,0.152-0.34,0.309-0.34,0.467c0,0.228,0.153,0.392,0.459,0.493
		c0.306,0.103,0.731,0.198,1.275,0.289c0.544,0.091,1.046,0.195,1.505,0.314s0.853,0.278,1.181,0.477s0.586,0.453,0.773,0.765
		S75.687,43.169,75.687,43.646z"/>
	<path fill="#FFFFFF" d="M90.375,46.399h-2.244v-4.981h-5.049v4.981h-2.244V34.602h2.244v4.726h5.049v-4.726h2.244V46.399z"/>
	<path fill="#FFFFFF" d="M95.543,37.424c0.612,0,1.184,0.116,1.717,0.348c0.533,0.232,1,0.556,1.403,0.97
		c0.402,0.413,0.719,0.9,0.952,1.462c0.232,0.561,0.349,1.17,0.349,1.827s-0.116,1.264-0.349,1.819s-0.55,1.037-0.952,1.444
		c-0.403,0.408-0.87,0.729-1.403,0.961s-1.105,0.349-1.717,0.349c-0.612,0-1.185-0.116-1.717-0.349s-0.997-0.553-1.394-0.961
		c-0.396-0.407-0.711-0.889-0.943-1.444s-0.349-1.162-0.349-1.819s0.116-1.267,0.349-1.827c0.232-0.562,0.547-1.049,0.943-1.462
		c0.397-0.414,0.861-0.737,1.394-0.97C94.358,37.54,94.931,37.424,95.543,37.424z M95.551,44.547c0.296,0,0.575-0.06,0.836-0.179
		s0.492-0.289,0.691-0.51c0.199-0.222,0.356-0.485,0.469-0.791c0.114-0.306,0.171-0.646,0.171-1.02s-0.057-0.72-0.171-1.037
		c-0.113-0.317-0.27-0.59-0.469-0.816s-0.429-0.402-0.691-0.527c-0.262-0.124-0.541-0.187-0.836-0.187s-0.578,0.062-0.845,0.187
		c-0.267,0.125-0.498,0.301-0.691,0.527s-0.347,0.499-0.461,0.816c-0.113,0.317-0.17,0.663-0.17,1.037s0.057,0.714,0.17,1.02
		c0.114,0.306,0.268,0.569,0.461,0.791c0.193,0.221,0.424,0.391,0.691,0.51S95.255,44.547,95.551,44.547z"/>
	<path fill="#FFFFFF" d="M114.056,46.399h-2.244v-5.117c0-0.124-0.017-0.286-0.051-0.484s-0.108-0.391-0.222-0.578
		c-0.114-0.187-0.279-0.346-0.496-0.476c-0.216-0.131-0.507-0.195-0.871-0.195c-0.513,0-0.926,0.164-1.239,0.492
		c-0.313,0.329-0.47,0.743-0.47,1.241v5.117h-2.244v-5.117c0-0.124-0.018-0.286-0.051-0.484c-0.035-0.198-0.105-0.391-0.214-0.578
		c-0.108-0.187-0.271-0.346-0.487-0.476c-0.217-0.131-0.513-0.195-0.889-0.195c-0.501,0-0.909,0.164-1.222,0.492
		c-0.313,0.329-0.47,0.743-0.47,1.241v5.117h-2.244v-8.755h2.142l0,0.85c0.272-0.328,0.599-0.589,0.979-0.781
		c0.38-0.193,0.809-0.289,1.285-0.289c0.545,0,1.042,0.107,1.49,0.322c0.448,0.216,0.826,0.521,1.132,0.918
		c0.317-0.385,0.701-0.688,1.149-0.909s0.956-0.331,1.524-0.331c0.59,0,1.115,0.093,1.575,0.28c0.459,0.187,0.848,0.45,1.166,0.79
		s0.559,0.746,0.724,1.216c0.165,0.471,0.247,0.994,0.247,1.572V46.399z"/>
	<path fill="#FFFFFF" d="M116.946,42.897c0.147,0.544,0.417,0.969,0.808,1.275c0.391,0.306,0.853,0.459,1.385,0.459
		c0.374,0,0.728-0.082,1.062-0.247c0.334-0.164,0.598-0.422,0.791-0.773h2.397c-0.261,0.896-0.756,1.618-1.487,2.168
		s-1.646,0.824-2.746,0.824c-0.612,0-1.19-0.119-1.734-0.357c-0.544-0.237-1.02-0.563-1.428-0.978
		c-0.408-0.413-0.731-0.897-0.969-1.453c-0.238-0.555-0.357-1.15-0.357-1.785s0.119-1.232,0.357-1.793
		c0.238-0.562,0.561-1.049,0.969-1.462c0.408-0.414,0.884-0.742,1.428-0.986s1.122-0.365,1.734-0.365
		c0.646,0,1.255,0.121,1.828,0.365c0.572,0.244,1.062,0.601,1.47,1.071c0.408,0.47,0.714,1.045,0.918,1.725
		c0.204,0.681,0.266,1.451,0.187,2.312H116.946z M121.332,41.062c-0.136-0.51-0.399-0.915-0.791-1.216
		c-0.391-0.3-0.858-0.45-1.402-0.45c-0.51,0-0.958,0.15-1.343,0.45c-0.386,0.301-0.658,0.706-0.816,1.216H121.332z"/>
</g>
</svg>
