<?xml version="1.0" encoding="utf-8"?>
<!-- Generator: Adobe Illustrator 15.1.0, SVG Export Plug-In  -->
<!DOCTYPE svg PUBLIC "-//W3C//DTD SVG 1.1//EN" "http://www.w3.org/Graphics/SVG/1.1/DTD/svg11.dtd" [
	<!ENTITY ns_flows "http://ns.adobe.com/Flows/1.0/">
]>
<svg version="1.1"
	 xmlns="http://www.w3.org/2000/svg" xmlns:xlink="http://www.w3.org/1999/xlink" xmlns:a="http://ns.adobe.com/AdobeSVGViewerExtensions/3.0/"
	 x="0px" y="0px" width="83px" height="40px" viewBox="-0.056 0 83 40" overflow="visible" enable-background="new -0.056 0 83 40"
	 xml:space="preserve">
<defs>
</defs>
<path fill="#FFFFFF" d="M63.877,36.85c0-0.02,0.002-0.04,0.002-0.061l-9.722-7.593H9.778L0,36.79C0,37.803,0,40,2.222,40h59.436
	c2.222,0,2.195-2.163,2.22-3.146h0.002L63.877,36.85z"/>
<path fill="#FFFFFF" d="M34.353,16.214c-0.167-0.39-0.271-0.711-0.232-0.715c0.04-0.005,0.418-0.02,0.843-0.033l1.625-0.052
	c0.424-0.013,0.529-0.272,0.233-0.575l-7.45-7.676c-0.295-0.304-0.537-0.205-0.537,0.218v10.966c0,0.424,0.249,0.527,0.551,0.231
	l1.886-1.845c0.303-0.297,0.687-0.221,0.854,0.169l1.064,2.487c0.165,0.391,0.364,0.766,0.438,0.835
	c0.076,0.069,0.629-0.084,1.019-0.25l0.091-0.039c0.39-0.167,0.766-0.364,0.834-0.439c0.07-0.075-0.084-0.628-0.25-1.018
	L34.353,16.214z"/>
<path fill="#FFFFFF" d="M54.22,3.919C54.22,0.925,53.294,0,50.302,0H13.703c-2.994,0-3.919,0.925-3.919,3.919v23.258H54.22V3.919z
	 M50.726,23.211c0,0.487-0.396,0.883-0.882,0.883H14.162c-0.487,0-0.883-0.396-0.883-0.883V4.052c0-0.486,0.396-0.883,0.883-0.883
	h35.682c0.485,0,0.882,0.396,0.882,0.883V23.211z"/>
<circle display="none" fill="#FFFFFF" cx="16.976" cy="34.829" r="5.173"/>
<path display="none" fill="#FFFFFF" d="M49.792,37.215c-0.062,0-0.127-0.003-0.193-0.009c-1.234-0.105-2.15-1.19-2.047-2.425
	c0.004-0.057,0.252-3.36-0.727-7.704c-1.289-5.732-4.145-10.496-8.194-14.158c-4.109-3.718-9.093-6.265-14.515-7.568
	c-4.087-0.983-6.992-0.85-7.021-0.849c-1.234,0.065-2.294-0.888-2.359-2.125c-0.065-1.236,0.879-2.293,2.116-2.362
	c0.54-0.03,13.526-0.622,24.795,9.572c4.725,4.274,8.141,10.039,9.601,16.671c1.098,4.995,0.795,8.744,0.781,8.901
	C51.929,36.331,50.948,37.215,49.792,37.215L49.792,37.215z"/>
<path display="none" fill="#FFFFFF" d="M39.682,37.215c-0.072,0-0.145-0.004-0.219-0.012c-1.232-0.119-2.136-1.213-2.021-2.445
	c0.012-0.129,0.535-8.717-5.979-14.61c-6.649-6.016-14.268-5.632-14.343-5.628c-1.237,0.088-2.306-0.851-2.391-2.088
	c-0.084-1.238,0.855-2.311,2.094-2.396c0.385-0.026,9.539-0.562,17.654,6.78c8.244,7.458,7.482,17.927,7.438,18.369
	C41.804,36.346,40.825,37.215,39.682,37.215L39.682,37.215z"/>
<path display="none" fill="#FFFFFF" d="M27.325,24.191c-4.733-4.283-10.269-3.981-10.496-3.967
	c-1.238,0.081-2.176,1.149-2.096,2.388c0.082,1.238,1.15,2.178,2.39,2.096c0.036-0.002,3.901-0.156,7.188,2.815
	c3.159,2.859,2.869,7.077,2.855,7.249l0.001-0.015c0,0,0.061,2.458,2.15,2.458c2.091,0,2.322-2.035,2.322-2.035
	C31.666,34.918,32.188,28.59,27.325,24.191z"/>
<path display="none" fill="#FFFFFF" d="M55.792,40H8.086c-1.411,0-2.554-1.145-2.554-2.555V2.553C5.533,1.143,6.675,0,8.086,0
	h47.706c1.41,0,2.555,1.143,2.555,2.553v34.893C58.347,38.856,57.203,40,55.792,40L55.792,40z M10.639,34.893H53.24V5.107H10.639
	V34.893L10.639,34.893z"/>
<path display="none" fill="#FFFFFF" d="M31.939,20.726c-2.221,0-4.441-0.641-6.173-1.92L6.568,4.606L9.604,0.5l19.199,14.2
	c1.671,1.235,4.603,1.235,6.272,0L54.275,0.5l3.037,4.105l-19.199,14.2C36.382,20.085,34.162,20.726,31.939,20.726L31.939,20.726z"
	/>
<path display="none" fill="#FFFFFF" d="M24.248,20.859l-1.702-1.261L7.14,36.589l1.892,1.715l15.583-17.187
	C24.491,21.034,24.369,20.947,24.248,20.859z"/>
<path display="none" fill="#FFFFFF" d="M39.63,20.859c-0.12,0.088-0.242,0.175-0.367,0.259l15.584,17.187l1.891-1.715L41.333,19.598
	L39.63,20.859z"/>
<path display="none" fill="#FFFFFF" d="M48.944,16c0-1.657-1.344-3-3-3h-29c-1.657,0-3,1.343-3,3v21c0,1.657,1.343,3,3,3h29
	c1.656,0,3-1.343,3-3V16z M36.533,35h-9.231l1.786-7.093c-1.08-0.846-1.786-2.118-1.786-3.595c0-2.551,2.065-4.604,4.615-4.604
	s4.616,2.074,4.616,4.624c0,1.477-0.707,2.725-1.787,3.572L36.533,35z"/>
<path display="none" fill="#FFFFFF" d="M31.917,0.693C24.796,0.693,19,6,18.225,13h6.154c0.714-3,3.815-6.154,7.537-6.154
	S38.741,10,39.455,13h6.153C44.833,6,39.034,0.693,31.917,0.693z"/>
</svg>
