<?xml version="1.0" encoding="utf-8"?>
<!-- Generator: Adobe Illustrator 15.1.0, SVG Export Plug-In  -->
<!DOCTYPE svg PUBLIC "-//W3C//DTD SVG 1.1//EN" "http://www.w3.org/Graphics/SVG/1.1/DTD/svg11.dtd" [
	<!ENTITY ns_flows "http://ns.adobe.com/Flows/1.0/">
]>
<svg version="1.1"
	 xmlns="http://www.w3.org/2000/svg" xmlns:xlink="http://www.w3.org/1999/xlink" xmlns:a="http://ns.adobe.com/AdobeSVGViewerExtensions/3.0/"
	 x="0px" y="0px" width="357px" height="48px" viewBox="11.88 34.545 357 48"
	 overflow="visible" enable-background="new 11.88 34.545 357 48" xml:space="preserve">
<defs>
</defs>
<rect display="none" width="390" height="136"/>
<g>
	<path fill="#FFFFFF" d="M257.965,77.518l-3.721-14.385h1.301l3.199,12.406l3.182-12.406h1.627l3.134,12.4l3.238-12.4h1.262
		l-3.779,14.385h-1.445l-3.252-12.783l-3.32,12.783H257.965z"/>
	<path fill="#FFFFFF" d="M272.984,77.518V63.133h1.357v14.385H272.984z"/>
	<path fill="#FFFFFF" d="M277.643,77.518V63.133h1.455l8.125,12.335V63.133h1.279v14.385h-1.465l-8.096-12.35v12.35H277.643z"/>
	<path fill="#FFFFFF" d="M295.104,63.133h0.977c1.185,0,2.074,0.062,2.666,0.186s1.104,0.322,1.533,0.596
		c0.885,0.56,1.561,1.385,2.026,2.476s0.698,2.395,0.698,3.911c0,1.634-0.254,3.008-0.762,4.121s-1.26,1.94-2.256,2.48
		c-0.417,0.222-0.928,0.379-1.533,0.474s-1.53,0.142-2.773,0.142h-3.955V63.133H295.104z M293.043,76.336h2.783
		c1.087,0,1.881-0.041,2.383-0.122s0.918-0.22,1.25-0.415c0.729-0.437,1.273-1.102,1.631-1.997s0.537-2.049,0.537-3.462
		c0-1.348-0.172-2.469-0.518-3.364s-0.859-1.567-1.543-2.017c-0.352-0.234-0.783-0.4-1.294-0.498s-1.375-0.146-2.593-0.146h-0.312
		h-2.324V76.336z"/>
	<path fill="#FFFFFF" d="M305.035,70.34c0-2.331,0.592-4.177,1.777-5.537c1.185-1.361,2.787-2.041,4.805-2.041
		c2.025,0,3.631,0.68,4.819,2.041c1.188,1.36,1.782,3.206,1.782,5.537s-0.594,4.177-1.782,5.537s-2.794,2.041-4.819,2.041
		c-2.018,0-3.62-0.681-4.805-2.041S305.035,72.671,305.035,70.34z M306.402,70.34c0,1.966,0.469,3.523,1.406,4.673
		s2.207,1.724,3.809,1.724c1.608,0,2.884-0.573,3.828-1.719s1.416-2.705,1.416-4.678c0-1.979-0.472-3.545-1.416-4.697
		s-2.22-1.729-3.828-1.729c-1.582,0-2.847,0.581-3.794,1.743S306.402,68.38,306.402,70.34z"/>
	<path fill="#FFFFFF" d="M323.033,77.518l-3.721-14.385h1.301l3.199,12.406l3.182-12.406h1.627l3.134,12.4l3.238-12.4h1.262
		l-3.779,14.385h-1.445l-3.252-12.783l-3.32,12.783H323.033z"/>
	<path fill="#FFFFFF" d="M337.291,73.162h1.318c0.013,1.133,0.371,2.012,1.074,2.637s1.693,0.938,2.969,0.938
		c1.12,0,2-0.252,2.642-0.757s0.962-1.199,0.962-2.085c0-0.82-0.225-1.445-0.674-1.875s-1.344-0.817-2.686-1.162l-1.367-0.342
		c-1.471-0.378-2.489-0.857-3.052-1.44s-0.845-1.401-0.845-2.456c0-1.165,0.426-2.1,1.279-2.803s1.992-1.055,3.418-1.055
		c1.51,0,2.69,0.385,3.54,1.152c0.85,0.769,1.284,1.843,1.304,3.223h-1.338c-0.02-1.022-0.338-1.812-0.957-2.368
		s-1.488-0.835-2.607-0.835c-1.055,0-1.872,0.237-2.451,0.713s-0.869,1.146-0.869,2.012c-0.001,0.662,0.187,1.184,0.564,1.564
		c0.377,0.382,1.003,0.682,1.876,0.899l1.68,0.42c1.661,0.415,2.826,0.941,3.497,1.579s1.006,1.517,1.006,2.637
		c0,1.289-0.441,2.305-1.323,3.047s-2.088,1.113-3.618,1.113c-1.712,0-3.031-0.402-3.955-1.206s-1.387-1.955-1.387-3.452V73.162z"/>
	<path fill="#FFFFFF" d="M357.037,70.115c-0.645-0.339-1.123-0.752-1.436-1.24s-0.469-1.067-0.469-1.738
		c0-1.094,0.361-1.968,1.084-2.622s1.696-0.981,2.92-0.981s2.196,0.327,2.915,0.981s1.079,1.528,1.079,2.622
		c0,0.671-0.155,1.25-0.464,1.738s-0.786,0.901-1.431,1.24c0.755,0.293,1.348,0.755,1.777,1.387s0.645,1.364,0.645,2.197
		c0,1.296-0.405,2.322-1.216,3.081s-1.913,1.138-3.306,1.138s-2.495-0.379-3.306-1.138s-1.216-1.785-1.216-3.081
		c0-0.833,0.213-1.565,0.64-2.197S356.275,70.408,357.037,70.115z M355.973,73.738c0,0.898,0.294,1.633,0.884,2.202
		s1.349,0.854,2.28,0.854c0.944,0,1.706-0.288,2.285-0.864s0.869-1.34,0.869-2.29c0-0.905-0.282-1.621-0.845-2.148
		s-1.333-0.791-2.31-0.791c-1.002,0-1.781,0.266-2.334,0.796S355.973,72.774,355.973,73.738z M356.451,67.176
		c0,0.762,0.238,1.362,0.713,1.802s1.133,0.659,1.973,0.659s1.499-0.22,1.978-0.659s0.718-1.04,0.718-1.802
		c0-0.788-0.243-1.414-0.728-1.88s-1.141-0.698-1.968-0.698s-1.481,0.231-1.963,0.693S356.451,66.382,356.451,67.176z"/>
</g>
<rect x="235" y="39" fill="#FFFFFF" width="1" height="39"/>
<path display="none" fill="#1F2B7D" d="M57.916,76.566h0.289c0.521,0,0.98-0.205,1.381-0.615c0.398-0.408,0.599-0.984,0.599-1.725
	V58.153c0-0.888-0.225-1.504-0.672-1.852c-0.448-0.345-0.979-0.529-1.597-0.548v-0.246h6.809v0.246
	c-0.597,0.019-1.127,0.198-1.59,0.536c-0.463,0.337-0.694,0.958-0.694,1.864v15.539c0,0.926,0.231,1.566,0.694,1.922
	c0.463,0.357,1.219,0.537,2.269,0.537h1.836c0.8,0,1.438-0.094,1.915-0.289c0.476-0.191,0.855-0.488,1.134-0.883
	c0.28-0.395,0.563-0.955,0.853-1.678h0.245l-0.808,3.496H57.916V76.566z"/>
<path display="none" fill="#1F2B7D" d="M79.467,55.507v0.246c-0.638,0-1.176,0.178-1.618,0.536
	c-0.442,0.355-0.665,0.949-0.665,1.775v16.155c0,0.816,0.235,1.412,0.708,1.781c0.473,0.371,0.998,0.557,1.575,0.557v0.24h-6.753
	v-0.24c0.614,0,1.149-0.178,1.598-0.543c0.446-0.361,0.671-0.961,0.671-1.795V58.064c0-0.886-0.225-1.492-0.671-1.819
	c-0.448-0.33-0.983-0.492-1.598-0.492v-0.246H79.467z"/>
<path display="none" fill="#1F2B7D" d="M100.578,55.507v0.246c-0.539,0.067-0.988,0.251-1.345,0.548
	c-0.355,0.299-0.659,0.687-0.91,1.164c-0.249,0.478-0.535,1.11-0.852,1.899c-0.049,0.05-0.096,0.165-0.146,0.348L91.172,77.35H90.97
	l-7.252-19.083c0-0.038-0.021-0.097-0.057-0.173c-0.281-0.819-0.648-1.416-1.106-1.792c-0.457-0.374-1.03-0.556-1.712-0.548v-0.246
	h6.992v0.246c-0.588,0.059-1.062,0.174-1.417,0.348c-0.357,0.172-0.534,0.586-0.534,1.242c0,0.173,0.077,0.529,0.23,1.071
	c0.021,0.048,0.037,0.098,0.051,0.151c0.014,0.054,0.026,0.094,0.036,0.123l5.592,14.945h0.061l4.796-13.919
	c0.337-0.954,0.507-1.671,0.507-2.154c0-0.762-0.163-1.242-0.486-1.445c-0.323-0.202-0.803-0.321-1.438-0.361v-0.246H100.578z"/>
<path display="none" fill="#1F2B7D" d="M101.95,55.753v-0.246h12.681v3.354h-0.202c0-1.793-1.192-2.687-3.579-2.687h-4.43v9.672
	h3.896c0.77,0,1.457-0.125,2.063-0.373c0.606-0.25,0.952-0.824,1.04-1.721h0.213v4.822h-0.213c-0.088-0.547-0.25-0.971-0.493-1.264
	c-0.239-0.293-0.477-0.488-0.713-0.584c-0.235-0.098-0.443-0.145-0.629-0.145c-0.345-0.061-0.706-0.086-1.081-0.086h-4.083v7.557
	c0,0.568,0.106,1.061,0.324,1.477c0.217,0.414,0.719,0.621,1.509,0.621h3.161c0.76,0,1.385-0.113,1.876-0.334
	c0.491-0.219,0.877-0.529,1.162-0.924s0.521-0.871,0.715-1.43h0.203l-0.739,3.334H101.95v-0.23h0.289
	c0.451,0,0.895-0.184,1.328-0.551c0.435-0.365,0.651-0.963,0.651-1.789V58.182c0-0.655-0.147-1.225-0.441-1.706
	s-0.807-0.724-1.538-0.724H101.95z"/>
<path display="none" fill="#1F2B7D" d="M116.695,55.807h-0.288v-0.3h7.372c1.187,0,2.189,0.185,3.013,0.549
	c0.823,0.367,1.466,0.833,1.924,1.396c0.458,0.564,0.786,1.16,0.982,1.787c0.198,0.625,0.298,1.242,0.298,1.849
	c0,0.775-0.162,1.516-0.485,2.222c-0.321,0.709-0.819,1.318-1.488,1.83c-0.672,0.51-1.508,0.859-2.51,1.045v0.055
	c1.272,0.617,2.448,1.838,3.527,3.666l1.924,3.252c0.866,1.453,1.562,2.371,2.087,2.758c0.526,0.385,1.044,0.602,1.555,0.65v0.23
	h-3.873c-0.165-0.211-0.316-0.416-0.462-0.615c-0.144-0.197-0.298-0.404-0.464-0.627c-0.097-0.145-0.238-0.365-0.426-0.66
	c-0.188-0.293-0.301-0.459-0.341-0.496l-2.545-4.205c-0.51-0.855-1.032-1.551-1.565-2.086c-0.537-0.535-1.034-0.914-1.496-1.148
	c-0.463-0.23-0.878-0.373-1.25-0.436c-0.37-0.057-0.808-0.084-1.308-0.084v7.787c0,1.51,0.771,2.291,2.312,2.34v0.23h-6.78v-0.23
	c0.424-0.021,0.799-0.098,1.127-0.238c0.326-0.141,0.598-0.381,0.816-0.725c0.217-0.342,0.326-0.803,0.326-1.379V58.119
	c0-0.848-0.209-1.444-0.623-1.792C117.64,55.98,117.186,55.807,116.695,55.807z M120.876,65.885h1.215
	c1.27,0,2.312-0.184,3.125-0.553c0.815-0.363,1.405-0.891,1.77-1.57c0.366-0.68,0.551-1.516,0.551-2.498
	c0-0.822-0.166-1.626-0.491-2.415c-0.328-0.785-0.883-1.447-1.668-1.983c-0.787-0.536-1.844-0.803-3.172-0.803
	c-0.537,0-0.98,0.043-1.329,0.129V65.885z"/>
<path display="none" fill="#1F2B7D" d="M135.338,55.75v-0.243h6.979c1.168,0,2.197,0.159,3.088,0.478
	c0.892,0.316,1.633,0.751,2.225,1.299c0.594,0.551,1.038,1.167,1.333,1.856c0.293,0.689,0.439,1.413,0.439,2.174
	c0,0.741-0.138,1.458-0.411,2.147c-0.276,0.688-0.707,1.301-1.294,1.832c-0.589,0.535-1.361,0.959-2.315,1.281
	c-0.953,0.316-2.053,0.475-3.296,0.475c-0.396,0-1.156-0.055-2.282-0.172v7.348c0,1.512,0.77,2.293,2.311,2.342v0.23h-6.776v-0.23
	c0.663-0.021,1.211-0.211,1.64-0.57c0.428-0.363,0.644-0.953,0.644-1.771V58.121c0-0.492-0.079-0.902-0.23-1.228
	c-0.156-0.328-0.337-0.563-0.542-0.702c-0.209-0.139-0.439-0.244-0.693-0.31c-0.257-0.069-0.433-0.112-0.528-0.131H135.338z
	 M139.804,56.251v10.042c0.741,0.133,1.476,0.203,2.196,0.203c1.377,0,2.547-0.355,3.504-1.066c0.958-0.707,1.441-2.021,1.441-3.942
	c0-1.583-0.424-2.881-1.268-3.9c-0.843-1.016-2.122-1.525-3.836-1.525C141.177,56.062,140.495,56.123,139.804,56.251z"/>
<path display="none" fill="#1F2B7D" d="M173.102,66.178c0,1.992-0.494,3.844-1.482,5.559c-0.989,1.711-2.334,3.078-4.038,4.094
	c-1.704,1.014-3.593,1.52-5.662,1.52c-2.08,0-3.987-0.506-5.72-1.52c-1.733-1.018-3.1-2.387-4.097-4.111
	c-0.995-1.721-1.493-3.6-1.493-5.631c0-1.555,0.294-3.023,0.887-4.398c0.594-1.371,1.422-2.565,2.484-3.588
	c1.065-1.02,2.277-1.808,3.642-2.367c1.361-0.558,2.784-0.837,4.269-0.837c1.453,0,2.849,0.268,4.189,0.801
	c1.339,0.535,2.54,1.306,3.604,2.318c1.063,1.011,1.9,2.21,2.507,3.596C172.798,62.999,173.102,64.52,173.102,66.178z
	 M170.564,66.234c0-2.83-0.498-5.045-1.501-6.642c-1.003-1.599-2.16-2.67-3.472-3.213c-1.309-0.544-2.544-0.815-3.699-0.815
	c-0.897,0-1.825,0.147-2.79,0.44c-0.964,0.294-1.902,0.83-2.812,1.611c-0.912,0.78-1.66,1.877-2.248,3.29
	c-0.589,1.418-0.882,3.164-0.882,5.244c0,1.83,0.244,3.424,0.73,4.785c0.484,1.361,1.157,2.477,2.012,3.338
	c0.851,0.861,1.791,1.484,2.816,1.863c1.026,0.381,2.095,0.568,3.202,0.568c0.992,0,1.997-0.174,3.015-0.525
	c1.017-0.352,1.946-0.924,2.79-1.721c0.843-0.791,1.528-1.869,2.053-3.234C170.306,69.861,170.564,68.199,170.564,66.234z"/>
<path display="none" fill="#1F2B7D" d="M197.521,66.178c0,1.992-0.493,3.844-1.48,5.559c-0.985,1.711-2.332,3.078-4.038,4.094
	c-1.705,1.014-3.592,1.52-5.662,1.52c-2.079,0-3.987-0.506-5.722-1.52c-1.732-1.018-3.098-2.387-4.095-4.111
	c-0.996-1.721-1.493-3.6-1.493-5.631c0-1.555,0.296-3.023,0.889-4.398c0.591-1.371,1.418-2.565,2.485-3.588
	c1.062-1.02,2.276-1.808,3.64-2.367c1.36-0.558,2.783-0.837,4.267-0.837c1.455,0,2.853,0.268,4.189,0.801
	c1.34,0.535,2.541,1.306,3.606,2.318c1.061,1.011,1.897,2.21,2.505,3.596C197.22,62.999,197.521,64.52,197.521,66.178z
	 M194.987,66.234c0-2.83-0.501-5.045-1.504-6.642c-1.003-1.599-2.157-2.67-3.469-3.213c-1.309-0.544-2.545-0.815-3.699-0.815
	c-0.896,0-1.826,0.147-2.791,0.44c-0.963,0.294-1.901,0.83-2.813,1.611c-0.91,0.78-1.657,1.877-2.247,3.29
	c-0.587,1.418-0.882,3.164-0.882,5.244c0,1.83,0.244,3.424,0.73,4.785c0.489,1.361,1.157,2.477,2.01,3.338s1.791,1.484,2.82,1.863
	c1.025,0.381,2.093,0.568,3.202,0.568c0.991,0,1.996-0.174,3.013-0.525c1.019-0.352,1.948-0.924,2.792-1.721
	c0.841-0.791,1.526-1.869,2.051-3.234C194.728,69.861,194.987,68.199,194.987,66.234z"/>
<path display="none" fill="#1F2B7D" d="M196.895,76.566h0.288c0.521,0,0.979-0.205,1.383-0.615c0.395-0.408,0.597-0.984,0.597-1.725
	V58.153c0-0.888-0.224-1.504-0.674-1.852c-0.446-0.345-0.979-0.529-1.594-0.548v-0.246h6.808v0.246
	c-0.598,0.019-1.127,0.198-1.591,0.536c-0.461,0.337-0.692,0.958-0.692,1.864v15.539c0,0.926,0.231,1.566,0.692,1.922
	c0.464,0.357,1.22,0.537,2.27,0.537h1.837c0.798,0,1.438-0.094,1.914-0.289c0.476-0.191,0.854-0.488,1.133-0.883
	s0.564-0.955,0.854-1.678h0.245l-0.809,3.496h-12.66V76.566z"/>
<rect x="48.316" y="50.874" display="none" fill="#A17205" width="167.936" height="0.441"/>
<path display="none" fill="#1F2B7D" d="M42.475,35.454c0,0-5.782-0.937-15.036-0.937l0.001,0.001
	c-9.255,0-15.037,0.936-15.037,0.936s-3.133,23.005,5.953,36.81c3.08,4.678,9.063,9.271,9.083,9.287h-0.002h0.002l0,0h0.001l0,0l0,0
	c0.019-0.016,6.002-4.609,9.081-9.287C45.607,58.459,42.475,35.454,42.475,35.454z"/>
<path display="none" d="M14.425,40.798c0.024,0.107,0.066,0.181,0.066,0.181c0.187-0.294,0.571-0.325,0.848-0.304
	C15.141,40.638,14.704,40.592,14.425,40.798z"/>
<path display="none" fill="none" d="M15.354,42.465c0.025,0.032,0.061,0.058,0.102,0.062c-0.031-0.016-0.071-0.036-0.1-0.063
	C15.355,42.463,15.355,42.464,15.354,42.465z"/>
<path display="none" d="M15.386,41.696c0.01,0.003,0.019,0.006,0.025,0.009c0.013,0.003,0.022,0.007,0.033,0.01
	c0.003,0.001,0.007,0.002,0.01,0.002c0.012,0.003,0.022,0.006,0.032,0.008c0.005-0.012,0.009-0.026,0.012-0.038
	c-0.12-0.038-0.277-0.094-0.337-0.085c-0.018,0.002-0.034,0.008-0.05,0.014c0.075,0.014,0.181,0.052,0.269,0.08
	C15.382,41.695,15.384,41.696,15.386,41.696z M15.032,42.813c-0.011-0.001-0.019-0.001-0.025-0.003c-0.006,0-0.012,0-0.017,0
	c-0.003,0-0.006,0.001-0.009,0.001c-0.004,0.001-0.008,0.001-0.012,0.002c-0.003,0.001-0.007,0.002-0.01,0.003
	c-0.004,0.001-0.007,0.002-0.01,0.002c-0.004,0.001-0.008,0.003-0.013,0.005l0,0c-0.002,0.02-0.004,0.037-0.002,0.046
	c0.045-0.018,0.09-0.043,0.129-0.058c-0.011,0.001-0.021,0.001-0.029,0.001C15.034,42.813,15.033,42.813,15.032,42.813z
	 M18.8,47.745c0.062,0.051,0.116,0.099,0.163,0.145c0.006,0.005,0.012,0.012,0.019,0.019c0.029,0.029,0.055,0.056,0.079,0.083
	c0.021,0.023,0.042,0.049,0.063,0.075c0.005,0.007,0.011,0.014,0.017,0.022c0.082,0.109,0.147,0.232,0.147,0.346v-0.402
	c-0.081-0.095-0.169-0.174-0.224-0.22L18.8,47.745z M22.041,44.564l0.363,1.424c-0.032,0.005-0.064,0.011-0.097,0.015
	c-0.003,0-0.007,0-0.01,0.001c-0.029,0.003-0.059,0.007-0.089,0.01c-0.01,0.001-0.021,0.001-0.029,0.003
	c-0.022,0.001-0.046,0.004-0.068,0.006c-0.02,0.001-0.038,0.002-0.057,0.003c-0.014,0.001-0.028,0.002-0.042,0.003
	c-0.027,0.001-0.055,0.002-0.082,0.002c-0.006,0.001-0.012,0.001-0.019,0.001c-0.1,0-0.202-0.001-0.308-0.008
	c0.064,0.009,0.128,0.015,0.19,0.02c0.29,0.022,0.564,0.01,0.822-0.032l-0.182-0.708L22.041,44.564z M17.689,40.209
	c-0.021-0.004-0.235-0.054-0.339-0.078c-0.106-0.025-0.232-0.089-0.387-0.089c-0.131,0-0.706,0.301-0.706,0.301
	c0.027,0.011,0.396-0.118,0.473-0.134c0.077-0.012,0.071-0.004,0.114,0c0.005,0.081,0.072,0.102,0.174,0.103
	c0.104,0,0.174-0.065,0.192-0.092c0.121,0.039,0.304,0.042,0.39,0.029C17.669,40.24,17.708,40.22,17.689,40.209z M18.392,42.789
	c0.014,0.006,0.028,0.011,0.043,0.019c0.006,0.002,0.011,0.006,0.018,0.009c0.012,0.005,0.025,0.011,0.039,0.018
	c0.018,0.009,0.038,0.02,0.057,0.03c0.009,0.004,0.02,0.01,0.028,0.015c0.016,0.008,0.03,0.017,0.047,0.027
	c0.01,0.004,0.018,0.009,0.026,0.015c0.025,0.015,0.051,0.031,0.078,0.047c0,0,0.005,0.003,0.014,0.009l0,0
	c0.005,0.003,0.012,0.006,0.018,0.011l0,0c0.091,0.057,0.363,0.208,0.694,0.208c-0.302-0.056-0.515-0.209-0.515-0.209
	c-0.327-0.203-0.526-0.265-0.633-0.231C18.333,42.766,18.362,42.775,18.392,42.789L18.392,42.789z M15.521,42.579
	c-0.007-0.007-0.013-0.013-0.018-0.018c-0.006-0.012-0.023-0.021-0.045-0.033c-0.058,0.129-0.141,0.208-0.19,0.237
	c-0.009,0.005-0.02,0.008-0.029,0.012c-0.007,0.003-0.014,0.005-0.02,0.007c-0.004,0.002-0.009,0.002-0.013,0.004
	c-0.008,0.002-0.019,0.005-0.028,0.007c-0.002,0-0.002,0-0.004,0c-0.012,0.002-0.021,0.005-0.033,0.007
	c0.057,0.004,0.177-0.009,0.246-0.045c0.039-0.023,0.097-0.077,0.147-0.159c-0.002-0.002-0.004-0.006-0.006-0.009
	C15.524,42.587,15.521,42.583,15.521,42.579z M15.838,41.828c0.081-0.181,0.147-0.435,0.161-0.758l0,0l-0.004-0.323
	c-0.001-0.014-0.001-0.024-0.002-0.038h0.002v-0.035c0,0-0.081-0.173-0.188-0.086c0,0,0.064,0.038,0.069,0.156
	c0.006,0.119-0.011,0.337-0.011,0.337c-0.022,0.266-0.082,0.517-0.163,0.734c0.033,0.044,0.094,0.093,0.127,0.129
	c0.019,0.02,0.096,0.117,0.052,0.25c-0.053,0.127-0.136,0.313-0.184,0.364c-0.013,0.016-0.021,0.034-0.03,0.055
	c0.033,0.052,0.063,0.114,0.064,0.119c0.028-0.002,0.034-0.12,0.087-0.181c0.046-0.053,0.129-0.237,0.182-0.366
	c0.045-0.131-0.031-0.229-0.051-0.249C15.92,41.905,15.871,41.866,15.838,41.828z M23.781,43.958l0.769,0.765
	c-0.028,0.033-0.059,0.066-0.088,0.097c-0.008,0.01-0.017,0.019-0.025,0.027c-0.021,0.022-0.043,0.045-0.064,0.068
	c-0.011,0.012-0.022,0.022-0.033,0.034c-0.02,0.02-0.039,0.039-0.06,0.058c-0.012,0.014-0.026,0.026-0.039,0.04
	c-0.018,0.017-0.036,0.033-0.054,0.049c-0.015,0.015-0.031,0.028-0.046,0.042c-0.017,0.015-0.032,0.03-0.05,0.044
	c-0.017,0.014-0.034,0.028-0.051,0.043c-0.016,0.012-0.031,0.025-0.047,0.038c-0.019,0.015-0.037,0.031-0.057,0.046
	c-0.014,0.011-0.028,0.021-0.043,0.033c-0.02,0.015-0.041,0.03-0.062,0.046c-0.012,0.008-0.024,0.018-0.037,0.027
	c-0.023,0.016-0.047,0.032-0.07,0.048c-0.009,0.007-0.02,0.014-0.029,0.02c-0.026,0.018-0.053,0.034-0.08,0.051
	c-0.006,0.003-0.01,0.007-0.015,0.01c-0.207,0.126-0.428,0.233-0.664,0.314c-0.002,0-0.003,0.001-0.004,0.002l0.041,0.078
	c0.724-0.201,1.313-0.641,1.79-1.189l-0.562-0.563L23.781,43.958z M26.4,40.448c-0.022,0.12-0.058,0.293-0.107,0.506
	c-0.002,0.007-0.003,0.015-0.005,0.023c-0.009,0.032-0.017,0.065-0.024,0.1c-0.005,0.021-0.01,0.04-0.016,0.061
	c-0.004,0.017-0.008,0.033-0.013,0.051c-0.007,0.025-0.013,0.051-0.02,0.078c-0.004,0.013-0.007,0.024-0.011,0.037
	c-0.01,0.039-0.021,0.077-0.031,0.118c-0.003,0.011-0.007,0.022-0.011,0.035c-0.01,0.039-0.021,0.078-0.033,0.119
	c-0.001,0.004-0.003,0.008-0.004,0.013c-0.014,0.046-0.027,0.093-0.042,0.141c-0.002,0.007-0.004,0.014-0.007,0.021
	c-0.03,0.099-0.062,0.2-0.098,0.304c-0.001,0.003-0.002,0.007-0.003,0.01c-0.055,0.163-0.115,0.331-0.183,0.502l0.211,0.03
	c0.48-1.227,0.637-2.311,0.637-2.311C26.566,40.342,26.484,40.396,26.4,40.448z M24.672,42.406l1.002,0.452
	c-0.027,0.067-0.058,0.134-0.088,0.2c-0.211,0.464-0.47,0.93-0.786,1.352c-0.001,0.002-0.001,0.003-0.002,0.005l0.164,0.089
	c0.387-0.5,0.69-1.071,0.927-1.626l-0.97-0.434L24.672,42.406z M20.055,47.693c-0.029,0-0.058,0.002-0.085,0.003
	c-0.005,0.001-0.01,0.001-0.015,0.001c-0.026,0.004-0.054,0.007-0.079,0.013c-0.017,0.002-0.035,0.004-0.052,0.007
	c-0.467,0.965-0.134,2.206-0.134,2.206c0.024,0.005,0.047,0.011,0.068,0.015c0.648,0.148,1.244,0.468,1.347,0.525
	c0.062,0.004,0.125,0.008,0.189,0.013c0,0-0.656-0.376-1.394-0.533C19.901,49.943,19.557,48.662,20.055,47.693z M18.501,50.363
	c-0.032,0.003-0.064,0.008-0.099,0.013c-0.003,0.001-0.006,0.001-0.009,0.002c-0.03,0.006-0.061,0.013-0.092,0.02
	c-0.003,0.001-0.007,0.002-0.01,0.003c-0.032,0.009-0.062,0.018-0.095,0.028c-0.002,0.001-0.004,0.001-0.006,0.001
	c-0.032,0.011-0.063,0.022-0.097,0.034c-0.003,0.002-0.005,0.003-0.009,0.003c-0.03,0.012-0.059,0.023-0.087,0.036
	c-0.004,0.001-0.007,0.003-0.011,0.005c-0.03,0.012-0.059,0.026-0.088,0.039c-0.001,0.001-0.001,0.001-0.003,0.002
	c-0.06,0.028-0.117,0.057-0.168,0.085c-0.023,0.054-0.037,0.11-0.043,0.17c0,0,0.562-0.38,1.025-0.421
	c0.776-0.07,1.236-0.008,2.178,0.064C19.795,50.331,19.327,50.289,18.501,50.363z"/>
<path display="none" fill="#FFFFFF" d="M17.211,40.22c-0.019,0.027-0.089,0.092-0.192,0.092c-0.102-0.001-0.169-0.022-0.174-0.103
	c-0.043-0.004-0.037-0.012-0.114,0c-0.076,0.016-0.445,0.145-0.473,0.134c0,0,0.575-0.301,0.706-0.301
	c0.154,0,0.28,0.064,0.387,0.089c0.104,0.023,0.318,0.073,0.339,0.078c0.019,0.011-0.021,0.031-0.089,0.04
	C17.515,40.261,17.332,40.259,17.211,40.22z M19.288,48.435c0-0.113-0.065-0.236-0.147-0.346c-0.006-0.008-0.012-0.015-0.017-0.022
	c-0.021-0.026-0.042-0.052-0.063-0.075c-0.024-0.027-0.05-0.054-0.079-0.083c-0.007-0.006-0.013-0.013-0.019-0.019
	c-0.047-0.045-0.102-0.094-0.163-0.145l0.488,0.123V48.435z M26.431,40.265c-1.581,1.177-4.829,1.121-5.347,1.259
	c-0.515,0.134-0.354,0.496-0.354,0.496c-0.72,1.875-2.003,0.949-2.003,0.949c-0.981-0.607-0.807,0.038-0.42,0.789
	c-1.533-0.19-0.264-2.315,0.275-2.726c0.574-0.438,1.209-1.644,1.209-1.644c-0.184,0.207-0.735,0.597-2.233,0.286
	c-0.663-0.136-1.127,0.278-1.127,0.278c-2.89-0.257-2.151,1.001-2.151,1.001c0.308-0.486,1.167-0.256,1.167-0.256
	c0.005,0.178,0.091,0.271,0.198,0.322c-0.023,0.203-0.068,0.455-0.159,0.705c-0.106-0.021-0.365-0.127-0.445-0.116
	c-0.227,0.036-0.2,0.364-0.447,0.459c0.023,0.058,0.137,0.134,0.255,0.156c-0.107,0.122-0.1,0.327-0.099,0.352
	c0.005,0.093,0.067,0.117,0.07,0.161c0.007,0.06-0.008,0.119-0.005,0.142c0.07-0.026,0.142-0.077,0.191-0.068
	c0.046,0.009,0.186-0.005,0.261-0.044c0.05-0.029,0.133-0.108,0.19-0.237c0.021,0.011,0.039,0.021,0.045,0.033
	c0.046,0.046,0.107,0.17,0.109,0.18c0.027-0.003,0.034-0.121,0.085-0.183c0.048-0.051,0.131-0.237,0.184-0.364
	c0.044-0.133-0.033-0.23-0.052-0.25c-0.033-0.037-0.094-0.085-0.127-0.129c0.081-0.217,0.141-0.468,0.163-0.734l0,0
	c0,0,0.017-0.218,0.011-0.337c-0.005-0.118-0.069-0.156-0.069-0.156c0.107-0.086,0.188,0.086,0.188,0.086l0.004,0.395
	c0.146-0.014,0.265-0.051,0.265-0.051s0.929-0.093,1.07,0.137c0.143,0.23,0.083,0.836-0.739,2.333
	c-0.897,1.64,0.059,3.221,1.392,3.91c0.448,0.33,1.383,1.157,1.263,2.27c0,0-1.71,0.346-1.772,1.117c0,0,0.562-0.381,1.024-0.422
	c0.882-0.079,1.356-0.025,2.621,0.108c0,0-0.693-0.395-1.432-0.547c0,0-0.333-1.241,0.134-2.206
	c0.017-0.003,0.035-0.005,0.052-0.007c0.565-0.118,1.556,0.435,1.556,0.435l-0.226-0.59c1.047,0.155,1.559,1.385,1.559,1.385
	c-0.033-1.038-0.717-2.082-1.52-2.958c0.115,0.019,0.228,0.033,0.338,0.041c0.291,0.022,0.562,0.007,0.821-0.035l-0.363-1.424
	l0.719,1.348c0.725-0.201,1.312-0.641,1.79-1.189l-0.769-0.765l0.967,0.524c0.386-0.501,0.689-1.069,0.926-1.625l-1.002-0.452
	l1.117,0.17C26.271,41.349,26.431,40.265,26.431,40.265z"/>
<path display="none" d="M18.583,41.032c-0.539,0.41-1.809,2.535-0.275,2.726c-1.21-0.388-0.031-2.307,0.48-2.697
	C19.363,40.626,20,39.417,20,39.417c-0.049,0.056-0.194,0.133-0.335,0.202C19.45,39.99,19.001,40.715,18.583,41.032z M21.431,46.009
	c-0.061-0.008-0.123-0.017-0.186-0.026c0.04,0.042,0.079,0.086,0.118,0.13c0.006,0.008,0.013,0.013,0.018,0.02
	c0.038,0.043,0.074,0.085,0.11,0.129c0.007,0.006,0.014,0.016,0.021,0.023c0.037,0.043,0.073,0.087,0.109,0.132
	c0.004,0.005,0.009,0.01,0.012,0.015c0.038,0.046,0.075,0.093,0.111,0.141c0,0,0.001,0.001,0.001,0.002
	c0.038,0.047,0.072,0.094,0.108,0.143c0.005,0.006,0.009,0.012,0.013,0.018c0.034,0.047,0.067,0.094,0.101,0.141
	c0.005,0.007,0.009,0.013,0.014,0.021c0.033,0.047,0.064,0.096,0.097,0.144c0.002,0.004,0.005,0.006,0.007,0.01
	c0.031,0.049,0.062,0.098,0.092,0.147c0.002,0.003,0.005,0.006,0.005,0.009c0.029,0.048,0.058,0.096,0.086,0.145
	c0.005,0.009,0.009,0.015,0.014,0.024c0.025,0.047,0.052,0.094,0.075,0.141c0.005,0.01,0.01,0.02,0.015,0.03
	c0.023,0.046,0.047,0.094,0.069,0.141c0.003,0.008,0.007,0.015,0.011,0.023c0.02,0.042,0.037,0.083,0.055,0.125
	c0.005,0.012,0.01,0.022,0.015,0.033c0.018,0.044,0.034,0.088,0.051,0.131c0.006,0.015,0.012,0.032,0.017,0.046
	c0.015,0.042,0.03,0.084,0.043,0.126c0.005,0.018,0.01,0.035,0.014,0.052c0.012,0.035,0.021,0.069,0.03,0.104
	c0.007,0.024,0.012,0.046,0.017,0.069c0.008,0.03,0.015,0.062,0.021,0.093c0.002,0.012,0.006,0.025,0.009,0.038
	c0.174,0.257,0.261,0.466,0.261,0.466C22.947,47.971,22.221,46.879,21.431,46.009z M21.206,47.555l0.199,0.521
	c0.146,0.068,0.239,0.121,0.239,0.121l-0.213-0.588C21.358,47.586,21.285,47.567,21.206,47.555z"/>
<path display="none" fill="none" d="M19.076,47.814c0.059,0.052,0.139,0.129,0.212,0.218v-0.164L19.076,47.814z"/>
<path display="none" d="M28.951,40.798c0.024,0.107,0.066,0.181,0.066,0.181c0.187-0.294,0.571-0.325,0.848-0.304
	C29.667,40.638,29.23,40.592,28.951,40.798z"/>
<path display="none" fill="none" d="M29.88,42.465c0.026,0.032,0.062,0.058,0.103,0.062c-0.032-0.016-0.071-0.036-0.101-0.063
	C29.881,42.463,29.881,42.464,29.88,42.465z"/>
<path display="none" d="M29.912,41.696c0.008,0.003,0.017,0.006,0.026,0.009c0.011,0.003,0.021,0.007,0.031,0.01
	c0.003,0.001,0.007,0.002,0.011,0.002c0.011,0.003,0.022,0.006,0.031,0.008c0.005-0.012,0.009-0.026,0.013-0.038
	c-0.121-0.038-0.278-0.094-0.337-0.085c-0.02,0.002-0.034,0.008-0.05,0.014c0.075,0.014,0.181,0.052,0.269,0.08
	C29.907,41.695,29.91,41.696,29.912,41.696z M29.557,42.813c-0.009-0.001-0.018-0.001-0.023-0.003c-0.005,0-0.012,0-0.018,0
	c-0.003,0-0.006,0.001-0.009,0.001c-0.003,0.001-0.007,0.001-0.011,0.002s-0.008,0.002-0.012,0.003
	c-0.001,0.001-0.005,0.002-0.008,0.002c-0.005,0.001-0.009,0.003-0.014,0.005c0,0,0,0-0.001,0c-0.001,0.02-0.002,0.037-0.001,0.046
	c0.046-0.018,0.091-0.043,0.13-0.058c-0.012,0.001-0.021,0.001-0.03,0.001C29.56,42.813,29.559,42.813,29.557,42.813z
	 M33.325,47.745c0.062,0.051,0.116,0.099,0.163,0.145c0.007,0.005,0.014,0.012,0.019,0.019c0.03,0.029,0.056,0.056,0.08,0.083
	c0.021,0.023,0.043,0.049,0.062,0.075c0.006,0.007,0.012,0.014,0.017,0.022c0.083,0.109,0.148,0.232,0.148,0.346v-0.402
	c-0.082-0.095-0.17-0.174-0.225-0.22L33.325,47.745z M36.566,44.564l0.363,1.424c-0.031,0.005-0.064,0.011-0.097,0.015
	c-0.003,0-0.006,0-0.009,0.001c-0.029,0.003-0.06,0.007-0.089,0.01c-0.011,0.001-0.021,0.001-0.031,0.003
	c-0.021,0.001-0.045,0.004-0.067,0.006c-0.019,0.001-0.037,0.002-0.057,0.003c-0.014,0.001-0.027,0.002-0.042,0.003
	c-0.027,0.001-0.054,0.002-0.082,0.002c-0.005,0.001-0.012,0.001-0.018,0.001c-0.101,0-0.203-0.001-0.309-0.008
	c0.064,0.009,0.128,0.015,0.191,0.02c0.29,0.022,0.563,0.01,0.821-0.032l-0.182-0.708L36.566,44.564z M32.216,40.209
	c-0.021-0.004-0.235-0.054-0.34-0.078c-0.105-0.025-0.233-0.089-0.387-0.089c-0.13,0-0.705,0.301-0.705,0.301
	c0.027,0.011,0.396-0.118,0.472-0.134c0.078-0.012,0.071-0.004,0.114,0c0.006,0.081,0.072,0.102,0.175,0.103
	c0.103,0,0.172-0.065,0.191-0.092c0.121,0.039,0.304,0.042,0.39,0.029C32.194,40.24,32.234,40.22,32.216,40.209z M32.918,42.789
	c0.014,0.006,0.028,0.011,0.043,0.019c0.005,0.002,0.012,0.006,0.017,0.009c0.014,0.005,0.025,0.011,0.039,0.018
	c0.019,0.009,0.038,0.02,0.058,0.03c0.01,0.004,0.019,0.01,0.028,0.015c0.014,0.008,0.031,0.017,0.047,0.027
	c0.009,0.004,0.018,0.009,0.026,0.015c0.025,0.015,0.051,0.031,0.077,0.047c0,0,0.006,0.003,0.015,0.009l0,0
	c0.005,0.003,0.01,0.006,0.018,0.011l0,0c0.091,0.057,0.363,0.208,0.695,0.208c-0.303-0.056-0.517-0.209-0.517-0.209
	c-0.328-0.203-0.526-0.265-0.632-0.231C32.859,42.766,32.887,42.775,32.918,42.789L32.918,42.789z M30.045,42.579
	c-0.006-0.007-0.011-0.013-0.016-0.018c-0.007-0.012-0.023-0.021-0.045-0.033c-0.059,0.129-0.141,0.208-0.191,0.237
	c-0.009,0.005-0.019,0.008-0.029,0.012c-0.005,0.003-0.013,0.005-0.02,0.007c-0.004,0.002-0.009,0.002-0.012,0.004
	c-0.01,0.002-0.02,0.005-0.028,0.007c-0.002,0-0.003,0-0.005,0c-0.01,0.002-0.021,0.005-0.032,0.007
	c0.055,0.004,0.176-0.009,0.246-0.045c0.038-0.023,0.097-0.077,0.147-0.159c-0.003-0.002-0.004-0.006-0.006-0.009
	C30.052,42.587,30.049,42.583,30.045,42.579z M30.362,41.828c0.083-0.181,0.149-0.435,0.162-0.758l0,0l-0.004-0.323
	c-0.001-0.014-0.001-0.024-0.002-0.038h0.002l-0.001-0.035c0,0-0.079-0.173-0.187-0.086c0,0,0.064,0.038,0.069,0.156
	c0.005,0.119-0.011,0.337-0.011,0.337c-0.022,0.266-0.082,0.517-0.164,0.734c0.034,0.044,0.094,0.093,0.129,0.129
	c0.019,0.02,0.094,0.117,0.05,0.25c-0.052,0.127-0.136,0.313-0.184,0.364c-0.012,0.016-0.021,0.034-0.029,0.055
	c0.033,0.052,0.063,0.114,0.064,0.119c0.028-0.002,0.034-0.12,0.086-0.181c0.046-0.053,0.129-0.237,0.182-0.366
	c0.044-0.131-0.031-0.229-0.051-0.249C30.446,41.905,30.397,41.866,30.362,41.828z M38.307,43.958l0.769,0.765
	c-0.028,0.033-0.059,0.066-0.087,0.097c-0.009,0.01-0.018,0.019-0.025,0.027c-0.021,0.022-0.043,0.045-0.064,0.068
	c-0.012,0.012-0.022,0.022-0.034,0.034c-0.019,0.02-0.038,0.039-0.058,0.058c-0.014,0.014-0.026,0.026-0.041,0.04
	c-0.018,0.017-0.035,0.033-0.053,0.049c-0.016,0.015-0.03,0.028-0.046,0.042c-0.018,0.015-0.034,0.03-0.051,0.044
	c-0.016,0.014-0.034,0.028-0.051,0.043c-0.015,0.012-0.031,0.025-0.047,0.038c-0.019,0.015-0.037,0.031-0.056,0.046
	c-0.014,0.011-0.028,0.021-0.043,0.033c-0.021,0.015-0.042,0.03-0.062,0.046c-0.012,0.008-0.024,0.018-0.037,0.027
	c-0.022,0.016-0.047,0.032-0.07,0.048c-0.01,0.007-0.02,0.014-0.03,0.02c-0.026,0.018-0.053,0.034-0.079,0.051
	c-0.005,0.003-0.011,0.007-0.017,0.01c-0.206,0.126-0.427,0.233-0.663,0.314c-0.002,0-0.003,0.001-0.004,0.002l0.042,0.078
	c0.724-0.201,1.312-0.641,1.79-1.189l-0.562-0.563L38.307,43.958z M40.926,40.448c-0.022,0.12-0.057,0.293-0.106,0.506
	c-0.002,0.007-0.004,0.015-0.006,0.023c-0.008,0.032-0.016,0.065-0.024,0.1c-0.005,0.021-0.01,0.04-0.015,0.061
	c-0.005,0.017-0.009,0.033-0.014,0.051c-0.006,0.025-0.013,0.051-0.02,0.078c-0.004,0.013-0.006,0.024-0.01,0.037
	c-0.011,0.039-0.021,0.077-0.032,0.118c-0.004,0.011-0.007,0.022-0.009,0.035c-0.012,0.039-0.022,0.078-0.035,0.119
	c-0.001,0.004-0.002,0.008-0.004,0.013c-0.013,0.046-0.027,0.093-0.042,0.141c-0.002,0.007-0.004,0.014-0.007,0.021
	c-0.029,0.099-0.062,0.2-0.097,0.304c-0.001,0.003-0.002,0.007-0.003,0.01c-0.056,0.163-0.115,0.331-0.183,0.502l0.21,0.03
	c0.481-1.227,0.639-2.311,0.639-2.311C41.091,40.342,41.011,40.396,40.926,40.448z M39.197,42.406l1.003,0.452
	c-0.028,0.067-0.058,0.134-0.088,0.2c-0.212,0.464-0.47,0.93-0.785,1.352c-0.002,0.002-0.003,0.003-0.005,0.005l0.166,0.089
	c0.386-0.5,0.69-1.071,0.927-1.626l-0.969-0.434L39.197,42.406z M34.581,47.693c-0.029,0-0.059,0.002-0.086,0.003
	c-0.005,0.001-0.009,0.001-0.014,0.001c-0.027,0.004-0.055,0.007-0.08,0.013c-0.017,0.002-0.034,0.004-0.05,0.007
	c-0.468,0.965-0.135,2.206-0.135,2.206c0.023,0.005,0.046,0.011,0.067,0.015c0.648,0.148,1.244,0.468,1.348,0.525
	c0.062,0.004,0.123,0.008,0.189,0.013c0,0-0.657-0.376-1.396-0.533C34.426,49.943,34.082,48.662,34.581,47.693z M33.026,50.363
	c-0.031,0.003-0.065,0.008-0.098,0.013c-0.003,0.001-0.006,0.001-0.009,0.002c-0.031,0.006-0.061,0.013-0.092,0.02
	c-0.004,0.001-0.008,0.002-0.011,0.003c-0.031,0.009-0.062,0.018-0.095,0.028c-0.001,0.001-0.003,0.001-0.005,0.001
	c-0.033,0.011-0.064,0.022-0.097,0.034c-0.003,0.002-0.006,0.003-0.01,0.003c-0.028,0.012-0.058,0.023-0.087,0.036
	c-0.004,0.001-0.008,0.003-0.011,0.005c-0.029,0.012-0.059,0.026-0.087,0.039c-0.001,0.001-0.002,0.001-0.004,0.002
	c-0.06,0.028-0.115,0.057-0.167,0.085c-0.023,0.054-0.039,0.11-0.043,0.17c0,0,0.562-0.38,1.024-0.421
	c0.775-0.07,1.236-0.008,2.178,0.064C34.321,50.331,33.853,50.289,33.026,50.363z"/>
<path display="none" fill="#FFFFFF" d="M31.736,40.22c-0.02,0.027-0.089,0.092-0.191,0.092c-0.103-0.001-0.169-0.022-0.175-0.103
	c-0.043-0.004-0.036-0.012-0.114,0c-0.075,0.016-0.444,0.145-0.472,0.134c0,0,0.575-0.301,0.705-0.301
	c0.153,0,0.281,0.064,0.387,0.089c0.104,0.023,0.318,0.073,0.34,0.078c0.019,0.011-0.021,0.031-0.09,0.04
	C32.04,40.261,31.857,40.259,31.736,40.22z M33.814,48.435c0-0.113-0.065-0.236-0.148-0.346c-0.005-0.008-0.011-0.015-0.017-0.022
	c-0.02-0.026-0.041-0.052-0.062-0.075c-0.024-0.027-0.05-0.054-0.08-0.083c-0.005-0.006-0.012-0.013-0.019-0.019
	c-0.047-0.045-0.101-0.094-0.163-0.145l0.489,0.123V48.435z M40.957,40.265c-1.581,1.177-4.83,1.121-5.347,1.259
	c-0.516,0.134-0.354,0.496-0.354,0.496c-0.72,1.875-2.003,0.949-2.003,0.949c-0.981-0.607-0.807,0.038-0.419,0.789
	c-1.535-0.19-0.265-2.315,0.275-2.726c0.574-0.438,1.21-1.644,1.21-1.644c-0.186,0.207-0.737,0.597-2.235,0.286
	c-0.663-0.136-1.127,0.278-1.127,0.278c-2.889-0.257-2.151,1.001-2.151,1.001c0.31-0.486,1.166-0.256,1.166-0.256
	c0.008,0.178,0.091,0.271,0.2,0.322c-0.023,0.203-0.068,0.455-0.16,0.705c-0.106-0.021-0.365-0.127-0.444-0.116
	c-0.227,0.036-0.2,0.364-0.448,0.459c0.023,0.058,0.137,0.134,0.255,0.156c-0.106,0.122-0.1,0.327-0.098,0.352
	c0.004,0.093,0.067,0.117,0.069,0.161c0.007,0.06-0.007,0.119-0.004,0.142c0.07-0.026,0.142-0.077,0.191-0.068
	c0.046,0.009,0.185-0.005,0.26-0.044c0.051-0.029,0.133-0.108,0.191-0.237c0.021,0.011,0.038,0.021,0.045,0.033
	c0.046,0.046,0.106,0.17,0.11,0.18c0.026-0.003,0.032-0.121,0.083-0.183c0.048-0.051,0.132-0.237,0.184-0.364
	c0.044-0.133-0.031-0.23-0.05-0.25c-0.035-0.037-0.095-0.085-0.129-0.129c0.082-0.217,0.142-0.468,0.164-0.734l0,0
	c0,0,0.016-0.218,0.011-0.337c-0.005-0.118-0.069-0.156-0.069-0.156c0.107-0.086,0.187,0.086,0.187,0.086l0.005,0.395
	c0.146-0.014,0.266-0.051,0.266-0.051s0.927-0.093,1.069,0.137c0.144,0.23,0.083,0.836-0.739,2.333
	c-0.897,1.64,0.06,3.221,1.392,3.91c0.448,0.33,1.382,1.157,1.264,2.27c0,0-1.711,0.346-1.772,1.117c0,0,0.561-0.381,1.023-0.422
	c0.883-0.079,1.356-0.025,2.621,0.108c0,0-0.693-0.395-1.431-0.547c0,0-0.333-1.241,0.135-2.206c0.016-0.003,0.033-0.005,0.05-0.007
	c0.566-0.118,1.557,0.435,1.557,0.435l-0.227-0.59c1.048,0.155,1.561,1.385,1.561,1.385c-0.034-1.038-0.718-2.082-1.521-2.958
	c0.115,0.019,0.228,0.033,0.337,0.041c0.291,0.022,0.563,0.007,0.821-0.035l-0.363-1.424l0.72,1.348
	c0.724-0.201,1.312-0.641,1.789-1.189l-0.769-0.765l0.966,0.524c0.387-0.501,0.69-1.069,0.928-1.625l-1.003-0.452l1.118,0.17
	C40.798,41.349,40.957,40.265,40.957,40.265z"/>
<path display="none" d="M33.109,41.032c-0.54,0.41-1.811,2.535-0.275,2.726c-1.211-0.388-0.032-2.307,0.48-2.697
	c0.575-0.435,1.212-1.645,1.212-1.645c-0.05,0.056-0.195,0.133-0.335,0.202C33.977,39.99,33.525,40.715,33.109,41.032z
	 M35.957,46.009c-0.062-0.008-0.123-0.017-0.186-0.026c0.039,0.042,0.078,0.086,0.118,0.13c0.005,0.008,0.011,0.013,0.018,0.02
	c0.037,0.043,0.074,0.085,0.11,0.129c0.007,0.006,0.013,0.016,0.021,0.023c0.036,0.043,0.073,0.087,0.109,0.132
	c0.004,0.005,0.007,0.01,0.012,0.015c0.038,0.046,0.075,0.093,0.111,0.141c0.001,0,0.001,0.001,0.001,0.002
	c0.036,0.047,0.073,0.094,0.107,0.143c0.005,0.006,0.009,0.012,0.014,0.018c0.034,0.047,0.067,0.094,0.1,0.141
	c0.005,0.007,0.01,0.013,0.015,0.021c0.032,0.047,0.064,0.096,0.097,0.144c0.001,0.004,0.003,0.006,0.006,0.01
	c0.032,0.049,0.062,0.098,0.093,0.147c0.001,0.003,0.003,0.006,0.005,0.009c0.029,0.048,0.057,0.096,0.084,0.145
	c0.005,0.009,0.011,0.015,0.015,0.024c0.026,0.047,0.051,0.094,0.075,0.141c0.006,0.01,0.011,0.02,0.017,0.03
	c0.022,0.046,0.046,0.094,0.068,0.141c0.004,0.008,0.006,0.015,0.01,0.023c0.02,0.042,0.038,0.083,0.056,0.125
	c0.005,0.012,0.009,0.022,0.014,0.033c0.018,0.044,0.036,0.088,0.052,0.131c0.006,0.015,0.011,0.032,0.016,0.046
	c0.016,0.042,0.03,0.084,0.043,0.126c0.005,0.018,0.01,0.035,0.016,0.052c0.01,0.035,0.02,0.069,0.029,0.104
	c0.005,0.024,0.011,0.046,0.017,0.069c0.007,0.03,0.014,0.062,0.021,0.093c0.003,0.012,0.006,0.025,0.009,0.038
	c0.174,0.257,0.259,0.466,0.259,0.466C37.474,47.971,36.745,46.879,35.957,46.009z M35.731,47.555l0.2,0.521
	c0.145,0.068,0.239,0.121,0.239,0.121l-0.214-0.588C35.885,47.586,35.81,47.567,35.731,47.555z"/>
<path display="none" fill="none" d="M33.602,47.814c0.059,0.052,0.139,0.129,0.213,0.218v-0.164L33.602,47.814z"/>
<path display="none" d="M20.527,64.434c0.03,0.133,0.083,0.225,0.083,0.225c0.234-0.367,0.719-0.406,1.065-0.383
	C21.426,64.23,20.879,64.172,20.527,64.434z"/>
<path display="none" fill="none" d="M21.695,66.523c0.031,0.041,0.076,0.076,0.127,0.078c-0.039-0.02-0.09-0.045-0.126-0.08
	L21.695,66.523z"/>
<path display="none" d="M21.734,65.561c0.011,0.004,0.022,0.008,0.032,0.01c0.015,0.004,0.027,0.01,0.041,0.012
	c0.005,0.002,0.008,0.004,0.013,0.004c0.015,0.004,0.027,0.006,0.039,0.01c0.006-0.016,0.011-0.033,0.017-0.049
	c-0.152-0.047-0.35-0.119-0.425-0.107c-0.022,0.004-0.043,0.012-0.062,0.018c0.094,0.021,0.228,0.066,0.336,0.1
	C21.729,65.559,21.731,65.559,21.734,65.561z M21.288,66.963c-0.011-0.002-0.022-0.002-0.029-0.004c-0.007,0-0.016,0-0.022,0
	c-0.004,0-0.007,0-0.011,0c-0.005,0.002-0.01,0.002-0.014,0.004c-0.005,0.002-0.009,0.002-0.014,0.004
	c-0.004,0-0.007,0.002-0.011,0.002c-0.006,0.002-0.012,0.004-0.018,0.008l0,0c-0.002,0.023-0.004,0.043-0.001,0.057
	c0.056-0.021,0.113-0.055,0.162-0.072c-0.015,0.002-0.026,0.002-0.038,0.002C21.291,66.963,21.289,66.963,21.288,66.963z
	 M26.021,73.158c0.078,0.061,0.146,0.123,0.205,0.18c0.008,0.008,0.016,0.016,0.022,0.023c0.038,0.037,0.069,0.072,0.101,0.105
	c0.027,0.029,0.055,0.062,0.079,0.096c0.007,0.01,0.015,0.02,0.021,0.025c0.103,0.139,0.186,0.293,0.186,0.436v-0.506
	c-0.103-0.119-0.212-0.219-0.281-0.277L26.021,73.158z M30.093,69.162l0.456,1.791c-0.039,0.006-0.08,0.01-0.122,0.016
	c-0.003,0-0.007,0-0.011,0.002c-0.037,0.004-0.074,0.01-0.111,0.014c-0.013,0.002-0.026,0.002-0.039,0.004
	c-0.027,0.002-0.056,0.004-0.085,0.006c-0.022,0.004-0.047,0.004-0.07,0.006c-0.018,0-0.035,0.002-0.053,0.002
	c-0.035,0.002-0.069,0.004-0.103,0.006c-0.008,0-0.016,0-0.023,0c-0.127,0.002-0.255,0-0.387-0.01c0.08,0.01,0.16,0.018,0.239,0.023
	c0.365,0.029,0.709,0.012,1.031-0.039l-0.227-0.891L30.093,69.162z M24.628,63.691c-0.026-0.004-0.296-0.068-0.427-0.098
	c-0.133-0.031-0.292-0.111-0.485-0.111c-0.164,0-0.886,0.379-0.886,0.379c0.034,0.012,0.498-0.152,0.592-0.17
	c0.099-0.014,0.091-0.004,0.145,0c0.007,0.102,0.09,0.127,0.219,0.129c0.13,0,0.217-0.082,0.241-0.113
	c0.152,0.045,0.382,0.049,0.49,0.035C24.602,63.73,24.651,63.707,24.628,63.691z M25.511,66.932
	c0.017,0.008,0.034,0.016,0.052,0.025c0.008,0.002,0.016,0.006,0.022,0.01c0.017,0.006,0.032,0.014,0.049,0.023
	c0.023,0.01,0.047,0.023,0.072,0.035c0.011,0.006,0.023,0.014,0.035,0.021c0.02,0.01,0.039,0.02,0.06,0.033
	c0.011,0.006,0.022,0.014,0.032,0.02c0.032,0.018,0.064,0.037,0.098,0.057c0,0,0.007,0.006,0.018,0.014c0,0,0,0,0.001,0
	c0.006,0.004,0.014,0.01,0.021,0.014c0,0,0,0,0.001,0c0.112,0.07,0.455,0.262,0.871,0.262c-0.378-0.068-0.646-0.264-0.646-0.264
	c-0.411-0.256-0.663-0.334-0.794-0.289C25.436,66.902,25.472,66.916,25.511,66.932L25.511,66.932z M21.902,66.668
	c-0.007-0.008-0.015-0.018-0.021-0.021c-0.009-0.016-0.029-0.027-0.057-0.043c-0.073,0.162-0.177,0.264-0.24,0.299
	c-0.011,0.006-0.023,0.012-0.036,0.018c-0.009,0.002-0.017,0.004-0.025,0.006c-0.005,0.002-0.009,0.004-0.015,0.006
	c-0.012,0.004-0.023,0.006-0.036,0.008c-0.002,0.002-0.004,0.002-0.005,0.002c-0.014,0.004-0.027,0.008-0.042,0.008
	c0.07,0.008,0.223-0.012,0.309-0.057c0.05-0.027,0.122-0.096,0.187-0.199c-0.003-0.002-0.006-0.006-0.008-0.01
	C21.909,66.68,21.905,66.674,21.902,66.668z M22.3,65.727c0.104-0.227,0.188-0.549,0.204-0.955c0,0,0,0-0.001,0L22.5,64.367
	c-0.002-0.018-0.002-0.031-0.003-0.049h0.002v-0.043c0,0-0.102-0.215-0.236-0.109c0,0,0.08,0.049,0.088,0.197
	c0.007,0.148-0.014,0.424-0.014,0.424c-0.028,0.334-0.104,0.648-0.205,0.922c0.042,0.057,0.117,0.115,0.159,0.162
	c0.024,0.025,0.119,0.146,0.064,0.314c-0.066,0.158-0.171,0.393-0.229,0.457c-0.016,0.02-0.028,0.043-0.039,0.066
	c0.043,0.066,0.08,0.145,0.082,0.152c0.034-0.004,0.042-0.154,0.107-0.229c0.059-0.064,0.162-0.299,0.229-0.457
	c0.057-0.168-0.039-0.289-0.063-0.314C22.405,65.82,22.343,65.773,22.3,65.727z M32.279,68.398l0.965,0.961
	c-0.036,0.043-0.073,0.084-0.109,0.125c-0.012,0.01-0.022,0.02-0.032,0.033c-0.027,0.027-0.055,0.059-0.082,0.086
	c-0.014,0.014-0.027,0.029-0.042,0.043c-0.024,0.023-0.049,0.049-0.073,0.072c-0.017,0.016-0.033,0.033-0.05,0.049
	c-0.023,0.02-0.045,0.043-0.067,0.062c-0.021,0.018-0.039,0.033-0.058,0.053c-0.021,0.018-0.042,0.035-0.063,0.055
	c-0.021,0.018-0.042,0.035-0.063,0.055c-0.02,0.016-0.039,0.031-0.059,0.049c-0.024,0.018-0.047,0.037-0.071,0.053
	c-0.018,0.016-0.035,0.029-0.053,0.043c-0.026,0.02-0.053,0.041-0.079,0.059c-0.015,0.012-0.031,0.023-0.047,0.033
	c-0.029,0.021-0.058,0.043-0.088,0.062c-0.013,0.008-0.024,0.016-0.037,0.023c-0.033,0.021-0.067,0.045-0.101,0.064
	c-0.007,0.004-0.014,0.008-0.02,0.014c-0.26,0.158-0.536,0.293-0.834,0.393c-0.001,0-0.003,0.002-0.005,0.002l0.052,0.098
	c0.909-0.252,1.649-0.803,2.249-1.492l-0.706-0.707L32.279,68.398z M35.569,63.99c-0.028,0.15-0.072,0.369-0.136,0.635
	c-0.002,0.01-0.004,0.02-0.007,0.029c-0.01,0.041-0.02,0.082-0.03,0.127c-0.007,0.025-0.012,0.049-0.02,0.074
	c-0.005,0.021-0.011,0.045-0.016,0.064c-0.008,0.033-0.018,0.066-0.025,0.1c-0.005,0.016-0.009,0.029-0.013,0.047
	c-0.013,0.047-0.026,0.098-0.04,0.146c-0.004,0.014-0.009,0.029-0.013,0.045c-0.014,0.049-0.026,0.098-0.042,0.148
	c-0.002,0.004-0.004,0.01-0.004,0.016c-0.019,0.059-0.035,0.117-0.054,0.178c-0.003,0.008-0.006,0.018-0.009,0.027
	c-0.037,0.123-0.078,0.25-0.121,0.381c-0.002,0.004-0.003,0.008-0.005,0.012c-0.068,0.205-0.145,0.416-0.229,0.629l0.265,0.043
	c0.604-1.543,0.801-2.904,0.801-2.904C35.776,63.859,35.674,63.928,35.569,63.99z M33.396,66.453l1.26,0.564
	c-0.035,0.084-0.073,0.17-0.11,0.252c-0.265,0.582-0.59,1.168-0.986,1.699c-0.002,0.002-0.003,0.004-0.005,0.006l0.207,0.111
	c0.484-0.629,0.867-1.346,1.164-2.043L33.709,66.5L33.396,66.453z M27.599,73.092c-0.037,0-0.072,0.002-0.108,0.004
	c-0.005,0.002-0.011,0.002-0.017,0.002c-0.034,0.004-0.067,0.008-0.101,0.016c-0.021,0.004-0.043,0.006-0.063,0.01
	c-0.586,1.211-0.169,2.77-0.169,2.77c0.03,0.006,0.059,0.014,0.086,0.02c0.813,0.186,1.563,0.588,1.691,0.658
	c0.078,0.006,0.156,0.01,0.239,0.016c0,0-0.826-0.473-1.753-0.666C27.404,75.92,26.973,74.309,27.599,73.092z M25.646,76.445
	c-0.041,0.004-0.082,0.01-0.123,0.018c-0.004,0-0.008,0.002-0.011,0.002c-0.039,0.008-0.077,0.016-0.117,0.025
	c-0.003,0-0.008,0.002-0.012,0.002c-0.039,0.012-0.08,0.023-0.118,0.035c-0.003,0-0.005,0.002-0.008,0.002
	c-0.041,0.014-0.081,0.029-0.12,0.043c-0.004,0.002-0.009,0.004-0.013,0.004c-0.037,0.014-0.074,0.029-0.109,0.045
	c-0.005,0.002-0.009,0.004-0.014,0.006c-0.037,0.016-0.073,0.033-0.109,0.051c-0.001,0-0.002,0-0.003,0
	c-0.077,0.035-0.148,0.072-0.212,0.107c-0.029,0.068-0.048,0.141-0.054,0.213c0,0,0.705-0.477,1.287-0.525
	c0.975-0.09,1.553-0.01,2.735,0.08C27.272,76.404,26.684,76.352,25.646,76.445z"/>
<path display="none" fill="#FFFFFF" d="M24.026,63.707c-0.024,0.031-0.111,0.113-0.241,0.113c-0.129-0.002-0.212-0.027-0.219-0.129
	c-0.054-0.004-0.046-0.014-0.145,0c-0.094,0.018-0.558,0.182-0.592,0.17c0,0,0.722-0.379,0.886-0.379
	c0.193,0,0.353,0.08,0.485,0.111c0.131,0.029,0.4,0.094,0.427,0.098c0.023,0.016-0.026,0.039-0.111,0.051
	C24.408,63.756,24.179,63.752,24.026,63.707z M26.636,74.023c0-0.143-0.083-0.297-0.186-0.436c-0.007-0.006-0.015-0.016-0.021-0.025
	c-0.024-0.033-0.052-0.066-0.079-0.096c-0.031-0.033-0.062-0.068-0.101-0.105c-0.007-0.008-0.015-0.016-0.022-0.023
	c-0.06-0.057-0.127-0.119-0.205-0.18l0.614,0.152V74.023z M35.607,63.762c-1.986,1.479-6.067,1.408-6.717,1.58
	c-0.646,0.168-0.444,0.623-0.444,0.623c-0.903,2.355-2.516,1.191-2.516,1.191c-1.232-0.76-1.014,0.049-0.526,0.992
	c-1.927-0.24-0.332-2.908,0.345-3.424c0.723-0.549,1.521-2.066,1.521-2.066c-0.232,0.262-0.927,0.75-2.807,0.359
	c-0.833-0.168-1.415,0.352-1.415,0.352c-3.63-0.32-2.704,1.256-2.704,1.256c0.389-0.609,1.467-0.32,1.467-0.32
	c0.008,0.225,0.114,0.34,0.25,0.404c-0.029,0.256-0.087,0.572-0.201,0.887c-0.134-0.027-0.459-0.16-0.559-0.145
	c-0.284,0.043-0.252,0.457-0.562,0.576c0.03,0.072,0.172,0.168,0.32,0.197c-0.135,0.152-0.124,0.408-0.123,0.439
	c0.005,0.119,0.085,0.146,0.088,0.203c0.009,0.072-0.01,0.146-0.005,0.176c0.087-0.031,0.176-0.094,0.24-0.084
	c0.058,0.01,0.231-0.006,0.326-0.057c0.063-0.035,0.167-0.137,0.24-0.299c0.027,0.016,0.048,0.027,0.057,0.043
	c0.057,0.055,0.134,0.213,0.138,0.227c0.032-0.004,0.042-0.152,0.106-0.23c0.059-0.064,0.163-0.299,0.229-0.457
	c0.055-0.168-0.04-0.289-0.064-0.314c-0.042-0.047-0.117-0.105-0.159-0.162c0.102-0.273,0.177-0.588,0.205-0.922l0,0
	c0,0,0.021-0.275,0.014-0.424c-0.008-0.148-0.088-0.197-0.088-0.197c0.135-0.105,0.236,0.109,0.236,0.109l0.004,0.496
	c0.185-0.016,0.334-0.064,0.334-0.064s1.165-0.115,1.342,0.174c0.182,0.289,0.105,1.049-0.926,2.93
	c-1.128,2.059,0.074,4.045,1.748,4.91c0.562,0.412,1.735,1.453,1.585,2.852c0,0-2.148,0.436-2.226,1.404c0,0,0.705-0.48,1.286-0.531
	c1.108-0.1,1.703-0.033,3.291,0.137c0,0-0.869-0.496-1.797-0.689c0,0-0.417-1.559,0.169-2.77c0.021-0.004,0.042-0.006,0.063-0.01
	c0.711-0.146,1.954,0.547,1.954,0.547l-0.282-0.74c1.314,0.193,1.957,1.738,1.957,1.738c-0.041-1.305-0.899-2.615-1.909-3.715
	c0.145,0.021,0.287,0.043,0.425,0.053c0.365,0.025,0.707,0.008,1.031-0.043l-0.456-1.791l0.903,1.691
	c0.91-0.254,1.648-0.805,2.248-1.494l-0.965-0.961l1.213,0.66c0.485-0.629,0.866-1.344,1.164-2.041l-1.26-0.564l1.405,0.211
	C35.407,65.123,35.607,63.762,35.607,63.762z"/>
<path display="none" d="M25.749,64.725c-0.677,0.516-2.271,3.184-0.345,3.424c-1.521-0.488-0.041-2.896,0.604-3.387
	c0.722-0.547,1.523-2.066,1.523-2.066c-0.064,0.07-0.247,0.168-0.422,0.253C26.84,63.416,26.273,64.326,25.749,64.725z
	 M29.326,70.977c-0.076-0.01-0.154-0.02-0.233-0.033c0.051,0.055,0.1,0.109,0.148,0.164c0.008,0.008,0.015,0.018,0.022,0.025
	c0.047,0.055,0.094,0.107,0.14,0.16c0.008,0.01,0.016,0.021,0.025,0.031c0.046,0.053,0.092,0.109,0.138,0.166
	c0.005,0.006,0.009,0.012,0.014,0.018c0.048,0.059,0.095,0.117,0.141,0.178c0,0.002,0.001,0.002,0.001,0.004
	c0.046,0.057,0.092,0.117,0.136,0.178c0.006,0.008,0.011,0.016,0.017,0.021c0.043,0.059,0.085,0.117,0.126,0.178
	c0.006,0.008,0.012,0.016,0.017,0.023c0.041,0.062,0.083,0.121,0.122,0.184c0.002,0.004,0.006,0.006,0.008,0.014
	c0.04,0.059,0.077,0.119,0.116,0.184c0.002,0.002,0.004,0.008,0.006,0.01c0.038,0.061,0.072,0.121,0.106,0.184
	c0.006,0.008,0.012,0.02,0.019,0.029c0.032,0.061,0.063,0.117,0.095,0.176c0.006,0.014,0.012,0.023,0.02,0.037
	c0.029,0.061,0.058,0.119,0.086,0.178c0.005,0.01,0.009,0.02,0.013,0.029c0.024,0.053,0.048,0.104,0.07,0.158
	c0.005,0.014,0.011,0.027,0.018,0.041c0.021,0.055,0.043,0.111,0.063,0.168c0.008,0.016,0.014,0.037,0.021,0.055
	c0.019,0.053,0.037,0.107,0.054,0.158c0.006,0.023,0.013,0.045,0.02,0.066c0.013,0.043,0.024,0.086,0.036,0.129
	c0.008,0.029,0.016,0.061,0.021,0.088c0.009,0.039,0.018,0.078,0.025,0.115c0.003,0.018,0.008,0.033,0.011,0.049
	c0.219,0.322,0.327,0.586,0.327,0.586C31.231,73.441,30.317,72.068,29.326,70.977z M29.045,72.92l0.251,0.652
	c0.182,0.086,0.3,0.15,0.3,0.15l-0.27-0.738C29.235,72.957,29.143,72.934,29.045,72.92z"/>
<path display="none" fill="none" d="M26.368,73.244c0.074,0.062,0.175,0.162,0.268,0.273v-0.207L26.368,73.244z"/>
<linearGradient id="SVGID_1_" gradientUnits="userSpaceOnUse" x1="18.7061" y1="59.3545" x2="26.9971" y2="59.3545">
	<stop  offset="0" style="stop-color:#FFFFFF"/>
	<stop  offset="0.1343" style="stop-color:#F0F1F6"/>
	<stop  offset="0.3911" style="stop-color:#CACADF"/>
	<stop  offset="0.7406" style="stop-color:#8D8DBA"/>
	<stop  offset="0.9382" style="stop-color:#6768A3"/>
</linearGradient>
<path display="none" fill="url(#SVGID_1_)" d="M23.184,58.295c-0.039-0.005-0.077-0.012-0.115-0.016
	c-0.058-0.008-0.115-0.016-0.175-0.022c-1.67-0.157-3.157,0.378-3.932,0.732l-0.256,0.625c0,0,4.701-3.077,8.291,0.866
	C26.997,60.48,25.679,58.698,23.184,58.295z"/>
<linearGradient id="SVGID_2_" gradientUnits="userSpaceOnUse" x1="31.0215" y1="58.9688" x2="35.4688" y2="58.9688">
	<stop  offset="0.0955" style="stop-color:#6768A3"/>
	<stop  offset="0.3196" style="stop-color:#8889B7"/>
	<stop  offset="0.811" style="stop-color:#DDDDEA"/>
	<stop  offset="1" style="stop-color:#FFFFFF"/>
</linearGradient>
<path display="none" fill="url(#SVGID_2_)" d="M35.272,59.09c-0.796-0.346-2.438-0.942-4.251-0.693
	c2.427-0.142,4.447,1.202,4.447,1.202L35.272,59.09z"/>
<linearGradient id="SVGID_3_" gradientUnits="userSpaceOnUse" x1="18.3965" y1="58.7012" x2="24.084" y2="58.7012">
	<stop  offset="0" style="stop-color:#FFFFFF"/>
	<stop  offset="0.1491" style="stop-color:#F1F0F6"/>
	<stop  offset="0.434" style="stop-color:#CBCADF"/>
	<stop  offset="0.8221" style="stop-color:#8E8DBB"/>
	<stop  offset="0.9382" style="stop-color:#7A79AF"/>
</linearGradient>
<path display="none" fill="url(#SVGID_3_)" d="M18.652,58.707l-0.256,0.57c0,0,2.799-1.635,5.688-0.796
	C21.787,57.721,19.525,58.368,18.652,58.707z"/>
<linearGradient id="SVGID_4_" gradientUnits="userSpaceOnUse" x1="29.335" y1="58.7656" x2="35.7881" y2="58.7656">
	<stop  offset="0.0955" style="stop-color:#7A79AF"/>
	<stop  offset="0.3471" style="stop-color:#9B9AC3"/>
	<stop  offset="0.8992" style="stop-color:#EFEFF5"/>
	<stop  offset="1" style="stop-color:#FFFFFF"/>
</linearGradient>
<path display="none" fill="url(#SVGID_4_)" d="M29.335,58.828c3.202-1.327,6.453,0.508,6.453,0.508l-0.213-0.507
	C34.681,58.468,32.013,57.605,29.335,58.828z"/>
<path display="none" fill="#A17205" d="M26.999,60.458c-2.995-3.289-6.765-1.677-7.931-1.053l-0.12,0.306l0.212,0.141
	c0,0,3.975-2.817,7.372,0.668c0.516,0.529,0.571,0.394,0.983,0c3.862-3.685,7.234-0.703,7.36-0.729
	c0.127-0.028,0.317-0.141,0.317-0.141l-0.098-0.27c-1.18-0.644-4.945-2.292-7.998,0.94L26.999,60.458z M26.999,60.458
	 M27.098,60.319"/>
<linearGradient id="SVGID_5_" gradientUnits="userSpaceOnUse" x1="18.2656" y1="56.2837" x2="27.21" y2="56.2837">
	<stop  offset="0.732" style="stop-color:#FFFFFF"/>
	<stop  offset="1" style="stop-color:#8E8EBC"/>
</linearGradient>
<path display="none" fill="url(#SVGID_5_)" d="M18.266,58.96c0,0,4.993-2.506,8.742,1.559l0.202-7.354c0,0-3.559-2.607-6.67,0.145
	L18.266,58.96z"/>
<linearGradient id="SVGID_6_" gradientUnits="userSpaceOnUse" x1="25.8384" y1="56.2524" x2="29.7859" y2="56.2524">
	<stop  offset="0.0955" style="stop-color:#7A79AF"/>
	<stop  offset="0.3471" style="stop-color:#9B9AC3"/>
	<stop  offset="0.8992" style="stop-color:#EFEFF5"/>
	<stop  offset="1" style="stop-color:#FFFFFF"/>
</linearGradient>
<path display="none" fill="url(#SVGID_6_)" d="M35.892,58.968c0,0-5.034-2.526-8.884,1.551l0.202-7.354c0,0,3.831-2.729,6.523,0.116
	L35.892,58.968z"/>
<path display="none" d="M21.448,54.876l0.111-0.021c0.125-0.025,0.191-0.111,0.263-0.339l0.091-0.013
	c-0.026,0.125-0.05,0.251-0.073,0.377c-0.018,0.123-0.033,0.242-0.053,0.364l-0.092,0.012c0.016-0.174-0.014-0.302-0.175-0.274
	l-0.098,0.015l-0.161,0.499c-0.055,0.207,0.007,0.21,0.257,0.16l-0.024,0.106c-0.161,0.034-0.35,0.074-0.545,0.113
	c-0.168,0.033-0.265,0.06-0.535,0.103l0.042-0.093c0.272-0.055,0.295-0.147,0.363-0.355l0.288-0.883
	c0.077-0.249,0.066-0.347-0.147-0.333l0.026-0.088c0.175-0.012,0.413-0.039,0.636-0.083c0.275-0.052,0.532-0.122,0.803-0.205
	l-0.042,0.465l-0.128,0.024c0.003-0.321-0.107-0.267-0.415-0.201c-0.199,0.041-0.238,0.053-0.29,0.272L21.448,54.876z"/>
<path display="none" d="M22.84,54.376c0.043-0.222,0.072-0.308-0.15-0.282l0.026-0.114c0.127-0.022,0.231-0.027,0.386-0.045
	c0.16-0.022,0.264-0.044,0.423-0.057l-0.014,0.114c-0.218,0.027-0.274,0.107-0.305,0.314l-0.222,0.882
	c-0.05,0.285-0.066,0.354,0.166,0.355l-0.018,0.114c-0.141,0-0.283,0-0.443,0.001c-0.135,0-0.339,0.026-0.474,0.04l0.035-0.11
	c0.242-0.027,0.279-0.122,0.343-0.379L22.84,54.376z"/>
<path display="none" d="M23.884,55.208c-0.031,0.073-0.053,0.108-0.101,0.214c-0.064,0.144,0.089,0.164,0.175,0.179l-0.016,0.11
	c-0.1-0.011-0.199-0.025-0.297-0.032c-0.092-0.007-0.182-0.008-0.274-0.012l0.017-0.113c0.204,0.001,0.309-0.243,0.393-0.429
	c0.251-0.54,0.577-1.265,0.577-1.265l0.196,0.024c0,0,0.236,1.162,0.274,1.417c0.031,0.22,0.044,0.26,0.066,0.365
	c0.016,0.067,0.107,0.144,0.162,0.166l-0.018,0.112c-0.145-0.044-0.227-0.073-0.377-0.107c-0.117-0.026-0.256-0.053-0.408-0.072
	l0.02-0.114c0.089,0.013,0.229,0.005,0.221-0.127c-0.003-0.047-0.019-0.185-0.025-0.229l-0.024-0.114c0,0-0.132-0.031-0.272-0.045
	c-0.137-0.019-0.245-0.019-0.245-0.019L23.884,55.208z M24.185,54.98c0.126,0.011,0.237,0.031,0.237,0.031l-0.132-0.67l-0.302,0.625
	C23.988,54.967,24.079,54.971,24.185,54.98z"/>
<path display="none" d="M26.337,55.125l-0.098-0.039c0.006-0.254,0.011-0.476-0.137-0.551c-0.141-0.069-0.169,0.006-0.189,0.238
	l-0.101,0.963c-0.028,0.263-0.004,0.37,0.185,0.481l-0.013,0.115c-0.15-0.077-0.28-0.138-0.398-0.187
	c-0.127-0.051-0.263-0.094-0.413-0.146l0.021-0.109c0.23,0.064,0.242-0.013,0.27-0.275l0.109-0.958
	c0.021-0.21,0.053-0.311-0.105-0.367c-0.189-0.069-0.21,0.122-0.271,0.362l-0.101-0.032l0.072-0.568c0,0,0.364,0.081,0.664,0.208
	c0.313,0.132,0.551,0.306,0.551,0.306L26.337,55.125z"/>
<path display="none" d="M28.578,56.317c0.209-0.125,0.207-0.222,0.192-0.465l-0.055-0.981c-0.013-0.245,0.005-0.375-0.232-0.285
	l-0.007-0.116c0.147-0.074,0.234-0.113,0.344-0.154c0.147-0.057,0.302-0.106,0.465-0.145l0.007,0.125
	c-0.22,0.068-0.199,0.193-0.186,0.439l0.048,0.798c0.015,0.3,0.048,0.465,0.317,0.375c0.343-0.11,0.476-0.25,0.521-0.61l0.099-0.014
	l0.013,0.604c-0.468,0.101-0.965,0.285-1.102,0.337c-0.127,0.059-0.284,0.131-0.418,0.205L28.578,56.317z"/>
<path display="none" d="M29.936,54.114c0.195-0.018,0.329-0.018,0.448-0.021c0.141-0.009,0.271-0.007,0.448-0.006l0.01,0.106
	c-0.217,0.004-0.216,0.151-0.191,0.393l0.05,0.469c0.036,0.378,0.165,0.602,0.505,0.586c0.362-0.013,0.353-0.205,0.314-0.563
	l-0.052-0.404c-0.012-0.106-0.032-0.243-0.086-0.332c-0.047-0.083-0.109-0.119-0.191-0.131l-0.012-0.105
	c0.104,0.007,0.191,0.023,0.288,0.036c0.091,0.013,0.146,0.01,0.26,0.022l0.011,0.106c-0.072,0-0.132,0.042-0.156,0.133
	c-0.03,0.106-0.003,0.222,0.009,0.338l0.035,0.265c0.063,0.538,0.115,0.809-0.508,0.833c-0.401,0.016-0.81-0.143-0.867-0.76
	l-0.054-0.49c-0.024-0.246-0.024-0.372-0.254-0.37L29.936,54.114z"/>
<path display="none" d="M33.395,55.87c0.091,0.119,0.167,0.216,0.282,0.236l0.016,0.102c-0.172-0.026-0.255-0.046-0.412-0.07
	c-0.124-0.022-0.271-0.037-0.411-0.063l-0.011-0.103c0.02,0.003,0.116,0.007,0.139-0.006c0.021-0.01,0.036-0.032,0.034-0.067
	c-0.003-0.056-0.094-0.182-0.126-0.23l-0.235-0.356l-0.124,0.189c-0.042,0.063-0.111,0.181-0.103,0.266
	c0.008,0.112,0.094,0.134,0.176,0.153l0.01,0.107c-0.128-0.025-0.21-0.043-0.314-0.065c-0.094-0.012-0.181-0.028-0.272-0.042
	l-0.006-0.109c0.128,0.016,0.207-0.091,0.275-0.199l0.281-0.431l-0.33-0.496c-0.032-0.071-0.078-0.129-0.121-0.188
	c-0.059-0.083-0.105-0.089-0.163-0.126l-0.005-0.11c0.113,0.036,0.239,0.064,0.369,0.091c0.126,0.022,0.249,0.037,0.362,0.051
	l0.011,0.117c-0.063-0.004-0.151-0.021-0.144,0.067c0.007,0.061,0.016,0.086,0.061,0.153l0.149,0.223l0.106-0.149
	c0.039-0.052,0.062-0.085,0.096-0.141c0.047-0.072-0.065-0.131-0.167-0.145l-0.008-0.113c0.096,0.015,0.169,0.023,0.252,0.029
	c0.088,0.004,0.143,0.001,0.223,0l0.036,0.11c-0.121,0-0.17,0.081-0.25,0.203l-0.214,0.32L33.395,55.87z"/>
<path display="none" fill="#A17205" d="M63.064,39.439v5.238c0,0.688,0,1.839-1.822,1.839c-1.491,0-1.696-0.884-1.696-1.839v-5.238
	h-1.071v5.544c0,0.583,0.199,2.479,2.768,2.479c1.865,0,2.894-0.88,2.894-2.479v-5.544H63.064z"/>
<path display="none" fill="#A17205" d="M76.86,39.439c0,0,0,5.369,0,6.35c-0.474-0.876-3.424-6.35-3.424-6.35H72.17v7.903h1.068
	c0,0,0-5.208,0-6.179c0.472,0.866,3.362,6.179,3.362,6.179h1.327v-7.903H76.86z"/>
<rect x="86.051" y="39.439" display="none" fill="#A17205" width="1.07" height="7.903"/>
<path display="none" fill="#A17205" d="M99.944,39.439c0,0-2.269,5.998-2.519,6.657c-0.245-0.663-2.471-6.657-2.471-6.657h-1.092
	l2.926,7.903h1.258l2.99-7.903H99.944z"/>
<path display="none" fill="#A17205" d="M107.74,39.439v7.903h4.252v-0.926c0,0-2.892,0-3.182,0c0-0.272,0-2.471,0-2.743
	c0.288,0,2.931,0,2.931,0v-0.926c0,0-2.643,0-2.931,0c0-0.267,0-2.115,0-2.381c0.29,0,3.081,0,3.081,0v-0.927H107.74z"/>
<path display="none" fill="#A17205" d="M119.515,39.439v7.903h1.071c0,0,0-3.135,0-3.427c0.229,0,0.875,0,0.875,0
	c1.149,0,1.369,0.438,1.624,1.512l0.468,1.915h1.078l-0.532-2.242c-0.157-0.702-0.302-1.308-1.059-1.639
	c1.107-0.375,1.361-1.227,1.361-1.916c0-1.378-1.008-2.106-2.917-2.106H119.515z M121.409,40.366c0.896,0,1.922,0.134,1.922,1.18
	c0,1.192-1.214,1.442-2.233,1.442c0,0-0.326,0-0.512,0c0-0.27,0-2.351,0-2.622C120.811,40.366,121.409,40.366,121.409,40.366z"/>
<path display="none" fill="#A17205" d="M131.824,41.415c0,1.159,0.977,1.627,1.761,2.003l0.888,0.427
	c-0.003,0,0.215,0.102,0.215,0.102c0.518,0.241,1.229,0.571,1.229,1.335c0,0.802-0.951,1.235-1.847,1.235
	c-1.119,0-1.658-0.146-1.949-0.225l-0.202-0.054l-0.007,0.208v0.802l0.245,0.047c0.275,0.054,0.849,0.167,1.726,0.167
	c1.942,0,3.104-0.853,3.104-2.28c0-1.304-1.022-1.791-1.924-2.222l-0.739-0.342c0.003,0.001-0.12-0.059-0.12-0.059
	c-0.644-0.311-1.308-0.632-1.308-1.203c0-0.693,0.624-1.091,1.71-1.091c0.833,0,1.481,0.187,1.661,0.245l0.209,0.067v-1.041
	l-0.126-0.027c-0.295-0.067-1.039-0.192-1.744-0.192C131.903,39.32,131.824,41.199,131.824,41.415z"/>
<rect x="144.485" y="39.439" display="none" fill="#A17205" width="1.069" height="7.903"/>
<path display="none" fill="#A17205" d="M152.604,39.439v0.927c0,0,1.771,0,2.045,0c0,0.307,0,6.977,0,6.977h1.071
	c0,0,0-6.67,0-6.977c0.272,0,2.045,0,2.045,0v-0.927H152.604z"/>
<path display="none" fill="#A17205" d="M168.954,39.439c0,0-1.878,2.934-2.119,3.312c-0.236-0.379-2.069-3.312-2.069-3.312h-1.206
	c0,0,2.702,4.24,2.752,4.318c0,0.091,0,3.585,0,3.585h1.068c0,0,0-3.492,0-3.584c0.05-0.079,2.777-4.319,2.777-4.319H168.954z"/>
<path display="none" fill="#A17205" d="M185.806,43.392c0,2.586,1.145,4.071,3.141,4.071c1.979,0,3.066-1.446,3.066-4.071
	c0-2.626-1.088-4.072-3.066-4.072C186.95,39.32,185.806,40.803,185.806,43.392z M186.95,43.358c0-1.411,0.34-3.09,1.96-3.09
	c1.619,0,1.959,1.68,1.959,3.09c0,1.44-0.34,3.158-1.959,3.158C187.29,46.516,186.95,44.798,186.95,43.358z"/>
<path display="none" fill="#A17205" d="M199.662,39.439v7.903h1.072c0,0,0-3.375,0-3.669c0.287,0,3.041,0,3.041,0v-0.926
	c0,0-2.754,0-3.041,0c0-0.267,0-2.115,0-2.381c0.289,0,3.179,0,3.179,0v-0.927H199.662z"/>
<path fill="#FFFFFF" d="M12.678,35.483l-0.256,0.042l-0.035,0.256c-0.031,0.23-3.043,23.204,5.987,36.922
	c3.069,4.662,8.884,9.15,9.13,9.34l0.213,0.163l0.213-0.163c0.247-0.189,6.068-4.688,9.13-9.34
	c9.029-13.716,6.019-36.691,5.987-36.922c0,0.006-0.03-0.221-0.03-0.221l-0.005-0.035l-0.255-0.042
	c-0.059-0.009-5.951-0.938-15.041-0.938C18.613,34.545,12.736,35.474,12.678,35.483z M27.718,35.245
	c8.097,0,13.573,0.731,14.669,0.891c0.115,0.966,0.469,4.319,0.469,8.881c0,8.034-1.107,19.293-6.379,27.302
	c-2.698,4.099-7.712,8.173-8.76,9.002c-1.048-0.829-6.062-4.903-8.76-9.002l0,0c-5.272-8.009-6.379-19.268-6.379-27.302
	c0-4.562,0.354-7.915,0.469-8.881C14.143,35.976,19.613,35.245,27.718,35.245z"/>
<path fill="#FFFFFF" d="M58.091,76.8h0.287c0.519,0,0.977-0.206,1.375-0.613s0.597-0.981,0.597-1.722V58.449
	c0-0.885-0.223-1.499-0.669-1.845c-0.446-0.344-0.976-0.527-1.59-0.546v-0.245h6.784v0.245c-0.595,0.019-1.122,0.198-1.584,0.533
	c-0.461,0.336-0.692,0.956-0.692,1.858v15.487c0,0.922,0.23,1.559,0.692,1.914c0.462,0.356,1.215,0.533,2.261,0.533h1.829
	c0.797,0,1.432-0.093,1.908-0.287c0.474-0.191,0.853-0.486,1.13-0.88c0.279-0.394,0.562-0.952,0.85-1.671h0.244l-0.805,3.483H58.091
	V76.8z"/>
<path fill="#FFFFFF" d="M79.567,55.812v0.245c-0.635,0-1.171,0.177-1.613,0.533c-0.441,0.355-0.662,0.945-0.662,1.77v16.098
	c0,0.814,0.234,1.407,0.704,1.776c0.472,0.369,0.995,0.555,1.57,0.555v0.239h-6.729v-0.239c0.613,0,1.145-0.18,1.591-0.542
	c0.446-0.358,0.669-0.956,0.669-1.789V58.36c0-0.882-0.224-1.487-0.669-1.813c-0.446-0.328-0.979-0.49-1.591-0.49v-0.245H79.567z"/>
<path fill="#FFFFFF" d="M100.605,55.812v0.245c-0.537,0.068-0.985,0.25-1.339,0.546c-0.354,0.298-0.657,0.683-0.907,1.159
	c-0.249,0.476-0.534,1.106-0.85,1.893c-0.048,0.05-0.095,0.164-0.144,0.346l-6.133,17.579H91.03l-7.227-19.02
	c0-0.039-0.021-0.096-0.056-0.171c-0.281-0.817-0.646-1.411-1.104-1.787c-0.457-0.374-1.026-0.555-1.706-0.546v-0.245h6.968v0.245
	c-0.585,0.058-1.057,0.173-1.412,0.347c-0.356,0.171-0.533,0.583-0.533,1.238c0,0.173,0.077,0.527,0.23,1.067
	c0.021,0.048,0.038,0.098,0.051,0.15c0.014,0.053,0.026,0.093,0.036,0.122l5.573,14.894h0.059l4.78-13.871
	c0.336-0.95,0.504-1.666,0.504-2.147c0-0.759-0.163-1.238-0.484-1.44c-0.322-0.201-0.8-0.32-1.433-0.36v-0.245H100.605z"/>
<path fill="#FFFFFF" d="M101.973,56.057v-0.245h12.637v3.342h-0.202c0-1.786-1.188-2.678-3.567-2.678h-4.414v9.639h3.882
	c0.767,0,1.453-0.125,2.056-0.373c0.604-0.25,0.948-0.82,1.037-1.713h0.212v4.807h-0.212c-0.089-0.547-0.25-0.969-0.492-1.262
	c-0.239-0.29-0.475-0.485-0.71-0.581c-0.235-0.099-0.443-0.144-0.627-0.144c-0.344-0.06-0.704-0.088-1.077-0.088h-4.069v7.531
	c0,0.568,0.106,1.059,0.323,1.473c0.216,0.412,0.717,0.617,1.504,0.617h3.15c0.757,0,1.38-0.111,1.87-0.332
	c0.488-0.218,0.874-0.527,1.157-0.92c0.284-0.395,0.52-0.867,0.712-1.426h0.203l-0.736,3.323h-12.637V76.8h0.287
	c0.45,0,0.893-0.183,1.325-0.549c0.432-0.364,0.648-0.96,0.648-1.786V58.477c0-0.652-0.147-1.22-0.44-1.699
	c-0.292-0.48-0.803-0.721-1.533-0.721H101.973z"/>
<path fill="#FFFFFF" d="M116.667,56.111h-0.288v-0.299h7.347c1.182,0,2.183,0.184,3.003,0.548c0.821,0.366,1.459,0.83,1.917,1.392
	c0.456,0.562,0.783,1.155,0.979,1.781c0.198,0.623,0.297,1.238,0.297,1.843c0,0.771-0.162,1.509-0.483,2.214
	c-0.321,0.705-0.816,1.314-1.483,1.824c-0.669,0.506-1.503,0.854-2.502,1.037v0.057c1.269,0.614,2.44,1.832,3.516,3.655l1.917,3.238
	c0.863,1.448,1.558,2.365,2.081,2.749c0.524,0.384,1.04,0.6,1.549,0.646v0.231h-3.86c-0.164-0.21-0.315-0.414-0.46-0.612
	c-0.143-0.197-0.297-0.404-0.462-0.627c-0.096-0.143-0.238-0.361-0.424-0.655c-0.188-0.292-0.3-0.458-0.339-0.496l-2.536-4.188
	c-0.509-0.854-1.029-1.547-1.561-2.08c-0.535-0.533-1.03-0.912-1.491-1.146c-0.461-0.229-0.875-0.371-1.245-0.432
	c-0.369-0.057-0.805-0.084-1.304-0.084v7.758c0,1.507,0.768,2.285,2.304,2.332v0.231h-6.758v-0.231
	c0.422-0.02,0.796-0.097,1.123-0.236c0.326-0.139,0.597-0.379,0.813-0.722c0.217-0.341,0.325-0.8,0.325-1.376V58.416
	c0-0.845-0.208-1.44-0.62-1.787C117.608,56.284,117.156,56.111,116.667,56.111z M120.833,66.152h1.211
	c1.264,0,2.304-0.183,3.114-0.549c0.812-0.363,1.4-0.889,1.763-1.564c0.365-0.678,0.549-1.51,0.549-2.49
	c0-0.818-0.166-1.62-0.49-2.405c-0.328-0.784-0.881-1.443-1.663-1.978c-0.784-0.535-1.836-0.8-3.161-0.8
	c-0.536,0-0.978,0.043-1.324,0.129V66.152z"/>
<path fill="#FFFFFF" d="M135.246,56.053v-0.241h6.956c1.163,0,2.189,0.158,3.076,0.476c0.89,0.315,1.628,0.749,2.218,1.293
	c0.591,0.549,1.034,1.165,1.328,1.851c0.292,0.687,0.438,1.408,0.438,2.166c0,0.74-0.137,1.452-0.41,2.14
	c-0.275,0.686-0.704,1.295-1.289,1.826c-0.587,0.533-1.356,0.957-2.307,1.277c-0.95,0.314-2.046,0.472-3.285,0.472
	c-0.395,0-1.153-0.056-2.275-0.169v7.318c0,1.509,0.767,2.287,2.303,2.334v0.231h-6.753v-0.231c0.661-0.02,1.207-0.207,1.634-0.566
	c0.427-0.361,0.641-0.95,0.641-1.768V58.417c0-0.49-0.078-0.899-0.229-1.224c-0.156-0.327-0.336-0.561-0.54-0.699
	c-0.209-0.139-0.438-0.244-0.691-0.309c-0.255-0.069-0.431-0.112-0.527-0.131H135.246z M139.696,56.554v10.007
	c0.739,0.133,1.47,0.201,2.189,0.201c1.373,0,2.538-0.353,3.492-1.061c0.955-0.705,1.437-2.016,1.437-3.93
	c0-1.576-0.423-2.87-1.263-3.886c-0.841-1.013-2.115-1.52-3.823-1.52C141.064,56.366,140.385,56.426,139.696,56.554z"/>
<path fill="#FFFFFF" d="M172.879,66.445c0,1.985-0.493,3.832-1.477,5.539c-0.986,1.707-2.326,3.068-4.023,4.079
	c-1.699,1.013-3.582,1.518-5.644,1.518c-2.073,0-3.973-0.505-5.701-1.518c-1.726-1.013-3.088-2.378-4.083-4.095
	c-0.992-1.716-1.488-3.587-1.488-5.613c0-1.551,0.294-3.013,0.884-4.381c0.591-1.366,1.417-2.558,2.475-3.576
	c1.062-1.017,2.271-1.803,3.63-2.359c1.356-0.555,2.774-0.835,4.254-0.835c1.448,0,2.839,0.267,4.174,0.799
	c1.335,0.533,2.532,1.302,3.591,2.31c1.061,1.006,1.895,2.202,2.499,3.584C172.576,63.277,172.879,64.793,172.879,66.445z
	 M170.351,66.503c0-2.82-0.497-5.027-1.497-6.619c-0.998-1.594-2.152-2.662-3.459-3.203c-1.305-0.543-2.535-0.813-3.686-0.813
	c-0.895,0-1.819,0.146-2.781,0.438c-0.959,0.292-1.894,0.827-2.802,1.605c-0.909,0.778-1.654,1.87-2.241,3.28
	c-0.586,1.412-0.878,3.151-0.878,5.225c0,1.822,0.242,3.411,0.728,4.77c0.483,1.356,1.153,2.468,2.004,3.324
	c0.848,0.858,1.785,1.479,2.808,1.856c1.021,0.38,2.087,0.566,3.19,0.566c0.988,0,1.99-0.172,3.004-0.522
	c1.013-0.35,1.939-0.921,2.78-1.714c0.84-0.789,1.524-1.863,2.046-3.223C170.092,70.117,170.351,68.461,170.351,66.503z"/>
<path fill="#FFFFFF" d="M197.215,66.445c0,1.985-0.491,3.832-1.475,5.539c-0.982,1.707-2.325,3.068-4.025,4.079
	c-1.698,1.013-3.579,1.518-5.642,1.518c-2.072,0-3.973-0.505-5.702-1.518c-1.727-1.013-3.086-2.378-4.08-4.095
	c-0.993-1.716-1.489-3.587-1.489-5.613c0-1.551,0.295-3.013,0.887-4.381c0.588-1.366,1.413-2.558,2.476-3.576
	c1.059-1.017,2.269-1.803,3.627-2.359c1.356-0.555,2.774-0.835,4.252-0.835c1.45,0,2.842,0.267,4.176,0.799
	c1.334,0.533,2.531,1.302,3.593,2.31c1.057,1.006,1.891,2.202,2.496,3.584C196.914,63.277,197.215,64.793,197.215,66.445z
	 M194.689,66.503c0-2.82-0.499-5.027-1.498-6.619c-1-1.594-2.15-2.662-3.457-3.203c-1.304-0.543-2.537-0.813-3.687-0.813
	c-0.894,0-1.82,0.146-2.781,0.438c-0.96,0.292-1.895,0.827-2.803,1.605c-0.908,0.778-1.652,1.87-2.239,3.28
	c-0.585,1.412-0.879,3.151-0.879,5.225c0,1.822,0.244,3.411,0.728,4.77c0.486,1.356,1.153,2.468,2.002,3.324
	c0.851,0.858,1.785,1.479,2.81,1.856c1.022,0.38,2.086,0.566,3.192,0.566c0.988,0,1.989-0.172,3.002-0.522
	c1.014-0.35,1.941-0.921,2.782-1.714c0.838-0.789,1.522-1.863,2.044-3.223C194.431,70.117,194.689,68.461,194.689,66.503z"/>
<path fill="#FFFFFF" d="M196.59,76.8h0.288c0.519,0,0.976-0.206,1.377-0.613c0.394-0.407,0.595-0.981,0.595-1.722V58.449
	c0-0.885-0.223-1.499-0.671-1.845c-0.446-0.344-0.976-0.527-1.589-0.546v-0.245h6.784v0.245c-0.596,0.019-1.123,0.198-1.585,0.533
	c-0.459,0.336-0.69,0.956-0.69,1.858v15.487c0,0.922,0.23,1.559,0.69,1.914c0.462,0.356,1.215,0.533,2.262,0.533h1.83
	c0.796,0,1.434-0.093,1.907-0.287c0.475-0.191,0.852-0.486,1.13-0.88s0.562-0.952,0.851-1.671h0.245l-0.807,3.483H196.59V76.8z"/>
<rect x="48.524" y="51.195" fill="#FFFFFF" width="167.356" height="0.738"/>
<path fill="#FFFFFF" d="M30.152,42.814c0.025,0.032,0.061,0.059,0.101,0.063c-0.032-0.017-0.071-0.037-0.1-0.064
	C30.152,42.813,30.152,42.813,30.152,42.814z"/>
<path fill="#FFFFFF" d="M32.001,40.577c-0.02,0.026-0.088,0.092-0.191,0.092c-0.102-0.001-0.168-0.022-0.174-0.103
	c-0.043-0.003-0.036-0.012-0.114,0c-0.075,0.015-0.443,0.145-0.47,0.134c0,0,0.573-0.299,0.703-0.299
	c0.154,0,0.28,0.062,0.386,0.087c0.103,0.025,0.316,0.075,0.337,0.078c0.019,0.011-0.021,0.031-0.088,0.041
	C32.304,40.619,32.122,40.617,32.001,40.577z M34.072,48.764c0-0.113-0.066-0.235-0.148-0.345c-0.005-0.007-0.011-0.015-0.017-0.022
	c-0.02-0.026-0.042-0.051-0.063-0.075c-0.024-0.026-0.049-0.054-0.08-0.083c-0.006-0.006-0.012-0.013-0.018-0.019
	c-0.047-0.046-0.101-0.094-0.163-0.144l0.487,0.123V48.764z M41.19,40.623c-1.576,1.173-4.813,1.117-5.329,1.254
	c-0.513,0.134-0.353,0.494-0.353,0.494c-0.716,1.869-1.996,0.945-1.996,0.945c-0.978-0.605-0.804,0.038-0.418,0.787
	c-1.528-0.19-0.263-2.307,0.274-2.716c0.573-0.436,1.206-1.639,1.206-1.639c-0.184,0.207-0.734,0.595-2.227,0.286
	c-0.661-0.135-1.123,0.277-1.123,0.277c-2.879-0.255-2.145,0.998-2.145,0.998c0.308-0.485,1.163-0.255,1.163-0.255
	c0.007,0.177,0.091,0.27,0.199,0.321c-0.023,0.202-0.068,0.454-0.159,0.703c-0.106-0.021-0.364-0.127-0.443-0.116
	c-0.226,0.035-0.2,0.364-0.446,0.458c0.023,0.057,0.136,0.133,0.254,0.155c-0.107,0.122-0.1,0.326-0.098,0.35
	c0.005,0.093,0.067,0.117,0.07,0.16c0.006,0.059-0.008,0.118-0.004,0.141c0.069-0.026,0.141-0.076,0.191-0.068
	c0.046,0.008,0.184-0.005,0.259-0.044c0.05-0.029,0.133-0.108,0.191-0.236c0.021,0.012,0.038,0.021,0.044,0.033
	c0.046,0.045,0.106,0.17,0.109,0.179c0.026-0.002,0.033-0.12,0.084-0.182c0.047-0.051,0.129-0.236,0.182-0.364
	c0.043-0.131-0.032-0.229-0.051-0.248c-0.034-0.037-0.094-0.085-0.127-0.128c0.081-0.217,0.14-0.467,0.163-0.732l0,0
	c0,0,0.016-0.218,0.01-0.336c-0.005-0.117-0.069-0.155-0.069-0.155c0.107-0.085,0.188,0.085,0.188,0.085l0.004,0.394
	c0.146-0.013,0.264-0.051,0.264-0.051s0.925-0.092,1.066,0.137c0.143,0.23,0.083,0.833-0.735,2.325
	c-0.895,1.634,0.058,3.209,1.386,3.896c0.447,0.328,1.378,1.152,1.259,2.262c0,0-1.705,0.345-1.767,1.113c0,0,0.56-0.38,1.021-0.42
	c0.879-0.079,1.352-0.026,2.612,0.108c0,0-0.69-0.394-1.425-0.546c0,0-0.332-1.237,0.133-2.198c0.017-0.003,0.034-0.005,0.051-0.009
	c0.564-0.117,1.551,0.434,1.551,0.434l-0.225-0.587c1.043,0.154,1.554,1.38,1.554,1.38c-0.033-1.035-0.715-2.075-1.515-2.948
	c0.115,0.018,0.227,0.033,0.336,0.042c0.29,0.022,0.561,0.006,0.819-0.035l-0.362-1.42l0.717,1.343
	c0.722-0.201,1.308-0.638,1.783-1.185l-0.765-0.763l0.962,0.523c0.385-0.499,0.688-1.066,0.924-1.619l-1-0.449l1.114,0.169
	C41.031,41.703,41.19,40.623,41.19,40.623z"/>
<path fill="#FFFFFF" d="M17.521,40.577c-0.019,0.026-0.088,0.092-0.191,0.092c-0.102-0.001-0.168-0.022-0.174-0.103
	c-0.043-0.003-0.036-0.012-0.114,0c-0.075,0.015-0.443,0.145-0.47,0.134c0,0,0.572-0.299,0.702-0.299
	c0.154,0,0.28,0.062,0.386,0.087c0.104,0.025,0.317,0.075,0.337,0.078c0.019,0.011-0.021,0.031-0.088,0.041
	C17.824,40.619,17.642,40.617,17.521,40.577z M19.592,48.764c0-0.113-0.065-0.235-0.147-0.345c-0.005-0.007-0.012-0.015-0.017-0.022
	c-0.02-0.026-0.041-0.051-0.063-0.075c-0.024-0.026-0.049-0.054-0.079-0.083c-0.006-0.006-0.012-0.013-0.018-0.019
	c-0.047-0.046-0.101-0.094-0.163-0.144l0.487,0.123V48.764z M26.71,40.623c-1.576,1.173-4.813,1.117-5.328,1.254
	c-0.514,0.134-0.353,0.494-0.353,0.494c-0.717,1.869-1.996,0.945-1.996,0.945c-0.978-0.605-0.804,0.038-0.418,0.787
	c-1.529-0.19-0.263-2.307,0.274-2.716c0.573-0.436,1.206-1.639,1.206-1.639c-0.184,0.207-0.734,0.595-2.227,0.286
	c-0.661-0.135-1.124,0.277-1.124,0.277c-2.879-0.255-2.145,0.998-2.145,0.998c0.308-0.485,1.163-0.255,1.163-0.255
	c0.007,0.177,0.09,0.27,0.198,0.321c-0.023,0.202-0.068,0.454-0.159,0.703c-0.106-0.021-0.363-0.127-0.443-0.116
	c-0.226,0.035-0.2,0.364-0.446,0.458c0.023,0.057,0.136,0.133,0.254,0.155c-0.107,0.122-0.1,0.326-0.098,0.35
	c0.005,0.093,0.067,0.117,0.07,0.16c0.006,0.059-0.008,0.118-0.005,0.141c0.069-0.026,0.141-0.076,0.191-0.068
	c0.046,0.008,0.184-0.005,0.259-0.044c0.05-0.029,0.133-0.108,0.191-0.236c0.021,0.012,0.038,0.021,0.045,0.033
	c0.045,0.045,0.106,0.17,0.109,0.179c0.026-0.002,0.034-0.12,0.084-0.182c0.047-0.051,0.129-0.236,0.183-0.364
	c0.043-0.131-0.032-0.229-0.051-0.248c-0.034-0.037-0.094-0.085-0.127-0.128c0.081-0.217,0.141-0.467,0.163-0.732l0,0
	c0,0,0.016-0.218,0.01-0.336c-0.005-0.117-0.069-0.155-0.069-0.155c0.106-0.085,0.187,0.085,0.187,0.085l0.004,0.394
	c0.146-0.013,0.264-0.051,0.264-0.051s0.925-0.092,1.066,0.137c0.143,0.23,0.083,0.833-0.736,2.325
	c-0.895,1.634,0.058,3.209,1.387,3.896c0.446,0.328,1.377,1.152,1.258,2.262c0,0-1.704,0.345-1.767,1.113c0,0,0.56-0.38,1.021-0.42
	c0.879-0.079,1.352-0.026,2.611,0.108c0,0-0.69-0.394-1.425-0.546c0,0-0.332-1.237,0.133-2.198c0.017-0.003,0.034-0.005,0.051-0.009
	c0.564-0.117,1.551,0.434,1.551,0.434l-0.225-0.587c1.043,0.154,1.554,1.38,1.554,1.38c-0.033-1.035-0.714-2.075-1.515-2.948
	c0.115,0.018,0.227,0.033,0.336,0.042c0.29,0.022,0.561,0.006,0.819-0.035l-0.362-1.42l0.717,1.343
	c0.722-0.201,1.308-0.638,1.783-1.185l-0.765-0.763l0.962,0.523c0.385-0.499,0.687-1.066,0.923-1.619l-0.999-0.449l1.114,0.169
	C26.551,41.703,26.71,40.623,26.71,40.623z"/>
<path fill="#FFFFFF" d="M21.994,66.791c0.032,0.04,0.076,0.074,0.127,0.078c-0.04-0.021-0.089-0.045-0.125-0.08
	C21.995,66.789,21.994,66.79,21.994,66.791z"/>
<path fill="#FFFFFF" d="M24.317,63.981c-0.024,0.033-0.111,0.115-0.24,0.115c-0.128-0.001-0.211-0.028-0.218-0.129
	c-0.054-0.005-0.045-0.014-0.144,0c-0.094,0.02-0.556,0.182-0.59,0.169c0,0,0.719-0.377,0.882-0.377c0.193,0,0.352,0.08,0.485,0.11
	c0.13,0.03,0.398,0.093,0.424,0.098c0.023,0.014-0.025,0.04-0.111,0.052C24.697,64.033,24.469,64.03,24.317,63.981z M26.918,74.264
	c0-0.142-0.083-0.295-0.186-0.432c-0.007-0.01-0.015-0.02-0.021-0.027c-0.025-0.033-0.052-0.064-0.079-0.094
	c-0.03-0.035-0.062-0.068-0.1-0.105c-0.008-0.008-0.015-0.018-0.022-0.023c-0.06-0.058-0.127-0.118-0.205-0.182l0.612,0.154V74.264z
	 M35.859,64.038c-1.979,1.475-6.046,1.403-6.693,1.575c-0.645,0.168-0.443,0.621-0.443,0.621c-0.9,2.348-2.507,1.188-2.507,1.188
	c-1.228-0.76-1.01,0.048-0.525,0.988c-1.92-0.239-0.331-2.897,0.344-3.411c0.719-0.548,1.515-2.059,1.515-2.059
	c-0.231,0.259-0.923,0.748-2.797,0.359c-0.83-0.17-1.411,0.349-1.411,0.349c-3.617-0.32-2.693,1.253-2.693,1.253
	c0.386-0.609,1.46-0.32,1.46-0.32c0.008,0.223,0.114,0.339,0.249,0.402c-0.029,0.254-0.085,0.57-0.2,0.883
	c-0.133-0.027-0.457-0.16-0.557-0.145c-0.284,0.043-0.251,0.457-0.56,0.575c0.029,0.071,0.171,0.167,0.319,0.195
	c-0.134,0.153-0.125,0.409-0.123,0.439c0.006,0.116,0.085,0.147,0.088,0.2c0.008,0.075-0.01,0.148-0.005,0.178
	c0.087-0.031,0.176-0.095,0.239-0.084c0.058,0.01,0.231-0.007,0.326-0.057c0.062-0.037,0.166-0.137,0.239-0.297
	c0.027,0.014,0.048,0.027,0.056,0.041c0.058,0.057,0.134,0.213,0.138,0.225c0.033-0.002,0.042-0.15,0.105-0.228
	c0.059-0.064,0.163-0.297,0.229-0.457c0.055-0.165-0.04-0.286-0.064-0.312c-0.043-0.046-0.118-0.107-0.159-0.161
	c0.102-0.272,0.176-0.587,0.205-0.919l0,0c0,0,0.02-0.275,0.013-0.422c-0.007-0.148-0.087-0.195-0.087-0.195
	c0.134-0.107,0.235,0.107,0.235,0.107l0.005,0.494c0.184-0.017,0.332-0.063,0.332-0.063s1.162-0.116,1.339,0.171
	c0.179,0.289,0.104,1.047-0.924,2.921c-1.124,2.052,0.073,4.031,1.742,4.894c0.561,0.412,1.73,1.447,1.581,2.84
	c0,0-2.141,0.435-2.219,1.4c0,0,0.703-0.479,1.282-0.528c1.105-0.099,1.698-0.032,3.281,0.136c0,0-0.867-0.494-1.79-0.686
	c0,0-0.417-1.554,0.167-2.762c0.021-0.004,0.043-0.006,0.064-0.01c0.708-0.146,1.948,0.544,1.948,0.544l-0.283-0.737
	c1.311,0.193,1.951,1.733,1.951,1.733c-0.042-1.3-0.897-2.606-1.902-3.702c0.144,0.022,0.285,0.041,0.422,0.052
	c0.364,0.027,0.705,0.007,1.028-0.044l-0.455-1.783l0.9,1.687c0.907-0.253,1.643-0.802,2.24-1.489l-0.961-0.957l1.208,0.656
	c0.484-0.627,0.864-1.339,1.16-2.032l-1.255-0.565l1.4,0.213C35.659,65.395,35.859,64.038,35.859,64.038z"/>
<path fill="#FFFFFF" d="M35.827,59.123c0.202,0.082,0.315,0.138,0.315,0.138l-2.15-5.667c-2.685-2.835-6.502-0.115-6.502-0.115
	v0.004c-0.235-0.166-3.64-2.494-6.632,0.154l-2.267,5.63c0,0,0.113-0.056,0.315-0.138l-0.197,0.438c0,0,0.196-0.113,0.53-0.263
	l-0.223,0.544c0,0,2.674-1.8,5.581-0.858c0.903,0.348,1.844,0.901,2.692,1.816c-3.198-3.336-6.75-1.733-7.912-1.111L19.257,60
	l0.211,0.141c0,0,3.961-2.808,7.347,0.667c0.513,0.527,0.568,0.391,0.979,0c3.849-3.673,7.209-0.701,7.334-0.729
	c0.127-0.028,0.316-0.139,0.316-0.139l-0.097-0.269c-1.172-0.642-4.504-2.316-7.923,1c0.704-0.712,1.444-1.212,2.184-1.55
	c0.98-0.406,1.963-0.513,2.857-0.469c1.86,0.23,3.254,1.154,3.254,1.154L35.564,59.4c0.298,0.131,0.474,0.229,0.474,0.229
	L35.827,59.123z M21.699,55.278l0.119-0.022c0.134-0.026,0.205-0.118,0.281-0.363l0.097-0.014c-0.027,0.134-0.053,0.27-0.078,0.405
	c-0.02,0.131-0.037,0.258-0.058,0.39l-0.099,0.013c0.017-0.187-0.014-0.324-0.187-0.294l-0.105,0.016l-0.172,0.534
	c-0.059,0.221,0.007,0.226,0.274,0.171l-0.025,0.115c-0.172,0.038-0.375,0.079-0.583,0.121c-0.181,0.035-0.285,0.064-0.574,0.109
	l0.044-0.1c0.292-0.059,0.317-0.156,0.39-0.379l0.31-0.946c0.082-0.267,0.07-0.372-0.159-0.357l0.029-0.095
	c0.186-0.012,0.44-0.043,0.68-0.089c0.295-0.057,0.57-0.132,0.86-0.22L22.7,54.77l-0.137,0.026c0.002-0.344-0.116-0.286-0.444-0.215
	c-0.214,0.044-0.256,0.056-0.312,0.292L21.699,55.278z M23.189,54.742c0.047-0.237,0.078-0.331-0.16-0.303l0.027-0.123
	c0.137-0.023,0.249-0.029,0.414-0.049c0.172-0.023,0.283-0.047,0.453-0.061l-0.015,0.122c-0.233,0.029-0.294,0.115-0.326,0.338
	l-0.238,0.943c-0.053,0.305-0.07,0.38,0.179,0.381l-0.019,0.121c-0.151,0-0.304,0-0.475,0.003c-0.145,0-0.363,0.027-0.508,0.041
	l0.038-0.117c0.259-0.028,0.299-0.13,0.367-0.406L23.189,54.742z M24.309,55.633c-0.035,0.078-0.058,0.117-0.109,0.229
	c-0.07,0.153,0.095,0.175,0.188,0.192l-0.018,0.119c-0.105-0.012-0.212-0.027-0.318-0.036c-0.098-0.006-0.195-0.007-0.294-0.012
	l0.018-0.121c0.219,0.001,0.331-0.261,0.421-0.459c0.269-0.578,0.619-1.354,0.619-1.354l0.211,0.024c0,0,0.252,1.247,0.293,1.52
	c0.033,0.235,0.048,0.277,0.072,0.39c0.016,0.072,0.114,0.154,0.173,0.178l-0.019,0.12c-0.155-0.047-0.244-0.077-0.404-0.114
	c-0.126-0.028-0.275-0.057-0.437-0.077l0.02-0.123c0.096,0.014,0.245,0.007,0.236-0.136c-0.003-0.051-0.02-0.199-0.027-0.246
	l-0.026-0.123c0,0-0.142-0.032-0.292-0.049c-0.146-0.019-0.262-0.02-0.262-0.02L24.309,55.633z M24.63,55.389
	c0.135,0.013,0.254,0.033,0.254,0.033l-0.142-0.718l-0.323,0.67C24.42,55.374,24.517,55.378,24.63,55.389z M26.937,55.542
	l-0.105-0.042c0.005-0.272,0.011-0.51-0.146-0.59c-0.15-0.073-0.181,0.006-0.203,0.255l-0.107,1.031
	c-0.031,0.28-0.004,0.397,0.198,0.515l-0.014,0.124c-0.161-0.084-0.301-0.148-0.427-0.201c-0.137-0.055-0.282-0.1-0.442-0.158
	l0.023-0.114c0.247,0.068,0.259-0.015,0.288-0.294l0.118-1.028c0.023-0.225,0.057-0.333-0.112-0.393
	c-0.203-0.074-0.226,0.131-0.291,0.389l-0.108-0.036l0.078-0.607c0,0,0.39,0.085,0.711,0.222c0.335,0.141,0.59,0.328,0.59,0.328
	L26.937,55.542z M28.471,56.777c0.224-0.134,0.221-0.237,0.206-0.497l-0.059-1.052c-0.013-0.262,0.005-0.401-0.249-0.305
	l-0.007-0.125c0.158-0.078,0.251-0.121,0.368-0.166c0.157-0.06,0.323-0.112,0.498-0.155l0.007,0.134
	c-0.235,0.074-0.212,0.209-0.199,0.47l0.051,0.855c0.015,0.321,0.051,0.499,0.34,0.402c0.368-0.118,0.51-0.268,0.559-0.654
	l0.105-0.015l0.013,0.646c-0.5,0.107-1.032,0.305-1.179,0.362c-0.136,0.062-0.306,0.14-0.448,0.218L28.471,56.777z M29.924,54.416
	c0.21-0.019,0.352-0.018,0.481-0.022c0.15-0.009,0.291-0.007,0.48-0.006l0.01,0.113c-0.232,0.003-0.231,0.161-0.205,0.421
	l0.052,0.503c0.04,0.406,0.179,0.644,0.541,0.628c0.389-0.015,0.379-0.22,0.338-0.604l-0.056-0.432
	c-0.013-0.115-0.033-0.261-0.092-0.357c-0.05-0.087-0.117-0.127-0.205-0.139l-0.013-0.113c0.111,0.007,0.206,0.024,0.309,0.038
	c0.098,0.014,0.157,0.011,0.279,0.024l0.012,0.114c-0.077,0.001-0.142,0.046-0.168,0.142c-0.033,0.114-0.002,0.239,0.009,0.362
	l0.038,0.284c0.067,0.576,0.124,0.865-0.543,0.892c-0.431,0.017-0.868-0.153-0.93-0.814l-0.058-0.524
	c-0.027-0.264-0.027-0.399-0.272-0.396L29.924,54.416z M33.631,56.299c0.097,0.127,0.179,0.231,0.302,0.252l0.018,0.11
	c-0.186-0.029-0.273-0.051-0.442-0.076c-0.133-0.023-0.291-0.039-0.44-0.068l-0.013-0.11c0.021,0.003,0.126,0.007,0.149-0.005
	c0.023-0.012,0.039-0.036,0.037-0.074c-0.003-0.059-0.101-0.194-0.136-0.246l-0.251-0.382l-0.133,0.205
	c-0.045,0.066-0.119,0.192-0.11,0.284c0.009,0.12,0.101,0.143,0.189,0.164l0.01,0.115c-0.137-0.026-0.225-0.046-0.335-0.069
	c-0.1-0.013-0.194-0.032-0.292-0.046l-0.007-0.118c0.137,0.018,0.222-0.097,0.295-0.213l0.301-0.461l-0.353-0.532
	c-0.035-0.076-0.085-0.139-0.13-0.203c-0.062-0.088-0.113-0.094-0.175-0.134l-0.005-0.116c0.122,0.036,0.256,0.068,0.395,0.097
	c0.135,0.024,0.267,0.04,0.388,0.054l0.012,0.126c-0.068-0.005-0.162-0.024-0.154,0.072c0.007,0.065,0.018,0.092,0.066,0.164
	l0.159,0.238l0.115-0.16c0.042-0.056,0.067-0.092,0.103-0.151c0.05-0.077-0.07-0.14-0.179-0.155l-0.009-0.121
	c0.102,0.016,0.183,0.025,0.271,0.032c0.094,0.004,0.151,0.001,0.238,0l0.04,0.118c-0.131,0-0.183,0.086-0.269,0.217l-0.229,0.342
	L33.631,56.299z"/>
<path fill="#FFFFFF" d="M63.222,39.8v5.219c0,0.685,0,1.832-1.817,1.832c-1.486,0-1.691-0.88-1.691-1.832V39.8h-1.066v5.525
	c0,0.58,0.199,2.47,2.757,2.47c1.859,0,2.883-0.877,2.883-2.47V39.8H63.222z"/>
<path fill="#FFFFFF" d="M76.969,39.8c0,0,0,5.349,0,6.328c-0.471-0.873-3.411-6.328-3.411-6.328h-1.263v7.875h1.066
	c0,0,0-5.189,0-6.158c0.469,0.863,3.349,6.158,3.349,6.158h1.324V39.8H76.969z"/>
<rect x="86.129" y="39.8" fill="#FFFFFF" width="1.066" height="7.875"/>
<path fill="#FFFFFF" d="M99.975,39.8c0,0-2.261,5.976-2.51,6.634c-0.245-0.66-2.464-6.634-2.464-6.634h-1.087l2.916,7.875h1.254
	l2.979-7.875H99.975z"/>
<path fill="#FFFFFF" d="M107.743,39.8v7.875h4.237v-0.922c0,0-2.882,0-3.171,0c0-0.272,0-2.463,0-2.734c0.287,0,2.92,0,2.92,0
	v-0.923c0,0-2.634,0-2.92,0c0-0.265,0-2.107,0-2.373c0.288,0,3.071,0,3.071,0V39.8H107.743z"/>
<path fill="#FFFFFF" d="M119.478,39.8v7.875h1.066c0,0,0-3.125,0-3.416c0.229,0,0.872,0,0.872,0c1.147,0,1.365,0.437,1.62,1.507
	l0.466,1.908h1.075l-0.532-2.234c-0.156-0.7-0.301-1.302-1.054-1.633c1.104-0.374,1.357-1.223,1.357-1.909
	c0-1.374-1.005-2.099-2.907-2.099H119.478z M121.364,40.723c0.893,0,1.916,0.134,1.916,1.176c0,1.188-1.21,1.437-2.226,1.437
	c0,0-0.325,0-0.51,0c0-0.27,0-2.343,0-2.613C120.769,40.723,121.364,40.723,121.364,40.723z"/>
<path fill="#FFFFFF" d="M131.745,41.768c0,1.155,0.972,1.622,1.753,1.997l0.885,0.425c-0.002-0.001,0.214,0.102,0.214,0.102
	c0.517,0.24,1.225,0.568,1.225,1.331c0,0.799-0.948,1.23-1.84,1.23c-1.115,0-1.653-0.145-1.942-0.223l-0.202-0.054l-0.006,0.208
	v0.799l0.243,0.047c0.275,0.055,0.846,0.167,1.719,0.167c1.938,0,3.093-0.85,3.093-2.272c0-1.298-1.018-1.784-1.917-2.213
	l-0.736-0.341c0.002,0.001-0.121-0.058-0.121-0.058c-0.641-0.31-1.303-0.629-1.303-1.198c0-0.691,0.622-1.088,1.705-1.088
	c0.83,0,1.476,0.187,1.654,0.244l0.209,0.067v-1.037l-0.125-0.029c-0.294-0.066-1.036-0.19-1.738-0.19
	C131.822,39.68,131.745,41.554,131.745,41.768z"/>
<rect x="144.361" y="39.8" fill="#FFFFFF" width="1.066" height="7.875"/>
<path fill="#FFFFFF" d="M152.453,39.8v0.923c0,0,1.766,0,2.038,0c0,0.306,0,6.953,0,6.953h1.067c0,0,0-6.647,0-6.953
	c0.272,0,2.039,0,2.039,0V39.8H152.453z"/>
<path fill="#FFFFFF" d="M168.746,39.8c0,0-1.872,2.924-2.112,3.299c-0.236-0.377-2.062-3.299-2.062-3.299h-1.202
	c0,0,2.692,4.226,2.742,4.303c0,0.091,0,3.573,0,3.573h1.065c0,0,0-3.48,0-3.572c0.05-0.078,2.768-4.303,2.768-4.303H168.746z"/>
<path fill="#FFFFFF" d="M185.539,43.738c0,2.579,1.141,4.058,3.13,4.058c1.971,0,3.057-1.441,3.057-4.058s-1.085-4.058-3.057-4.058
	C186.68,39.68,185.539,41.159,185.539,43.738z M186.68,43.705c0-1.405,0.338-3.081,1.953-3.081s1.953,1.675,1.953,3.081
	c0,1.435-0.339,3.146-1.953,3.146S186.68,45.14,186.68,43.705z"/>
<path fill="#FFFFFF" d="M199.349,39.8v7.875h1.067c0,0,0-3.364,0-3.657c0.288,0,3.032,0,3.032,0v-0.923c0,0-2.744,0-3.032,0
	c0-0.265,0-2.107,0-2.373c0.289,0,3.168,0,3.168,0V39.8H199.349z"/>
</svg>
